<?xml version="1.0" encoding="UTF-8" standalone="no"?>
<!-- Created with Inkscape (http://www.inkscape.org/) -->

<svg
   width="515.56268"
   height="659.99609"
   viewBox="0 0 136.40929 174.62396"
   version="1.1"
   id="svg14254"
   inkscape:version="1.2.1 (9c6d41e410, 2022-07-14)"
   sodipodi:docname="cgreeter.svg"
   xmlns:inkscape="http://www.inkscape.org/namespaces/inkscape"
   xmlns:sodipodi="http://sodipodi.sourceforge.net/DTD/sodipodi-0.dtd"
   xmlns="http://www.w3.org/2000/svg"
   xmlns:svg="http://www.w3.org/2000/svg"
   xmlns:rdf="http://www.w3.org/1999/02/22-rdf-syntax-ns#"
   xmlns:cc="http://creativecommons.org/ns#"
   xmlns:dc="http://purl.org/dc/elements/1.1/">
  <sodipodi:namedview
     id="namedview14256"
     pagecolor="#ffffff"
     bordercolor="#000000"
     borderopacity="0.25"
     inkscape:showpageshadow="2"
     inkscape:pageopacity="0.0"
     inkscape:pagecheckerboard="true"
     inkscape:deskcolor="#d1d1d1"
     inkscape:document-units="px"
     showgrid="false"
     inkscape:zoom="0.70710678"
     inkscape:cx="16.263456"
     inkscape:cy="352.84628"
     inkscape:window-width="1920"
     inkscape:window-height="1011"
     inkscape:window-x="0"
     inkscape:window-y="0"
     inkscape:window-maximized="1"
     inkscape:current-layer="layer1" />
  <defs
     id="defs14251">
    <marker
       style="overflow:visible"
       id="TriangleStart"
       refX="0"
       refY="0"
       orient="auto-start-reverse"
       inkscape:stockid="TriangleStart"
       markerWidth="5.3244081"
       markerHeight="6.155385"
       viewBox="0 0 5.3244081 6.1553851"
       inkscape:isstock="true"
       inkscape:collect="always"
       preserveAspectRatio="xMidYMid">
      <path
         transform="scale(0.5)"
         style="fill:context-stroke;fill-rule:evenodd;stroke:context-stroke;stroke-width:1pt"
         d="M 5.77,0 -2.88,5 V -5 Z"
         id="path135" />
    </marker>
  </defs>
  <g
     inkscape:groupmode="layer"
     id="layer3"
     inkscape:label="Layer 2"
     transform="translate(0.1322915,0.1322915)">
    <rect
       style="fill:#ffffff;stroke:#ffffff;stroke-width:0.264583;stroke-dasharray:none"
       id="rect20410"
       width="136.14471"
       height="174.35938"
       x="0"
       y="0" />
  </g>
  <g
     inkscape:label="Layer 1"
     inkscape:groupmode="layer"
     id="layer1"
     transform="translate(0.1322915,0.1322915)">
    <g
       id="g21262"
       transform="translate(3.0457894e-6,-0.93158723)">
      <path
         style="fill:none;stroke:#000000;stroke-width:0.264583;stroke-dasharray:none"
         d="M 0,33.077015 H 136.1447"
         id="path20255" />
      <path
         style="fill:none;stroke:#000000;stroke-width:0.264583;stroke-dasharray:none"
         d="M 0,68.002037 H 136.1447"
         id="path20257" />
      <path
         style="fill:none;stroke:#000000;stroke-width:0.264583;stroke-dasharray:none"
         d="M 0,103.45624 H 136.1447"
         id="path20259" />
      <path
         style="fill:none;stroke:#000000;stroke-width:0.264583;stroke-dasharray:none"
         d="M 0,138.38146 H 136.1447"
         id="path20261" />
      <g
         id="g20894">
        <g
           id="g6172"
           transform="translate(1.8316498,-2.3364716)">
          <circle
             style="fill:#ffffff;stroke:#000000;stroke-width:0.264583"
             id="circle5312"
             cx="20.836258"
             cy="20.918282"
             r="9.260416" />
          <text
             xml:space="preserve"
             style="font-style:normal;font-variant:normal;font-weight:normal;font-stretch:normal;font-size:3.175px;font-family:sans-serif;-inkscape-font-specification:sans-serif;fill:#000000;stroke:none;stroke-width:0.264583"
             x="17.238804"
             y="21.784895"
             id="text5326"><tspan
               id="tspan5324"
               style="font-style:normal;font-variant:normal;font-weight:normal;font-stretch:normal;font-family:sans-serif;-inkscape-font-specification:sans-serif;fill:#000000;stroke:none;stroke-width:0.264583"
               x="17.238804"
               y="21.784895"
               sodipodi:role="line">user</tspan></text>
        </g>
        <path
           style="fill:#000000;stroke:#000000;stroke-width:0.3603;stroke-dasharray:none;marker-end:url(#TriangleStart)"
           d="M 31.928324,18.58181 H 77.638619"
           id="path9124" />
        <g
           id="g19782"
           transform="translate(14.923652)">
          <g
             id="g16217"
             transform="translate(38.27607,-48.729706)">
            <circle
               style="fill:#ffffff;stroke:#000000;stroke-width:0.188383;stroke-dasharray:none;image-rendering:auto"
               id="circle16019"
               cx="39.148426"
               cy="67.311516"
               r="13.229166" />
            <g
               id="g19762">
              <circle
                 style="fill:#ffffff;stroke:#000000;stroke-width:0.264583"
                 id="circle5312-6"
                 cx="39.255402"
                 cy="70.963509"
                 r="9.260416" />
              <text
                 xml:space="preserve"
                 style="font-style:normal;font-variant:normal;font-weight:normal;font-stretch:normal;font-size:3.175px;font-family:sans-serif;-inkscape-font-specification:sans-serif;text-align:center;text-anchor:middle;fill:#000000;stroke:none;stroke-width:0.264583"
                 x="39.213539"
                 y="68.098289"
                 id="text5326-7"><tspan
                   id="tspan5324-5"
                   style="font-style:normal;font-variant:normal;font-weight:normal;font-stretch:normal;font-family:sans-serif;-inkscape-font-specification:sans-serif;text-align:center;text-anchor:middle;fill:#000000;stroke:none;stroke-width:0.264583"
                   x="39.213539"
                   y="68.098289"
                   sodipodi:role="line">times-</tspan><tspan
                   style="font-style:normal;font-variant:normal;font-weight:normal;font-stretch:normal;font-family:sans-serif;-inkscape-font-specification:sans-serif;text-align:center;text-anchor:middle;fill:#000000;stroke:none;stroke-width:0.264583"
                   x="39.213539"
                   y="72.067039"
                   sodipodi:role="line"
                   id="tspan16090">called</tspan></text>
            </g>
            <g
               id="g11263"
               transform="translate(-25.080231,53.369536)">
              <ellipse
                 style="fill:#ffffff;stroke:#000000;stroke-width:0.264583;stroke-dasharray:none"
                 id="path11169"
                 cx="64.335632"
                 cy="22.250494"
                 rx="4.8792887"
                 ry="2.2247369" />
              <text
                 xml:space="preserve"
                 style="font-style:normal;font-variant:normal;font-weight:normal;font-stretch:normal;font-size:1.91289px;font-family:sans-serif;-inkscape-font-specification:sans-serif;fill:#000000;stroke:none;stroke-width:0.159408"
                 x="64.335632"
                 y="22.963625"
                 id="text12384-1-5"><tspan
                   style="font-style:normal;font-variant:normal;font-weight:normal;font-stretch:normal;font-family:sans-serif;-inkscape-font-specification:sans-serif;text-align:center;text-anchor:middle;fill:#000000;stroke:none;stroke-width:0.159408"
                   x="64.335632"
                   y="22.963625"
                   sodipodi:role="line"
                   id="tspan15260-6">0</tspan></text>
            </g>
            <text
               xml:space="preserve"
               style="font-style:normal;font-variant:normal;font-weight:normal;font-stretch:normal;font-size:3.175px;font-family:sans-serif;-inkscape-font-specification:sans-serif;text-align:center;text-anchor:middle;fill:#000000;stroke:none;stroke-width:0.264583"
               x="39.276325"
               y="60.02367"
               id="text16094"><tspan
                 sodipodi:role="line"
                 id="tspan16092"
                 style="font-style:normal;font-variant:normal;font-weight:normal;font-stretch:normal;font-family:sans-serif;-inkscape-font-specification:sans-serif;fill:#000000;stroke:none;stroke-width:0.264583"
                 x="39.276325"
                 y="60.02367">julius</tspan></text>
          </g>
        </g>
        <text
           xml:space="preserve"
           style="font-style:normal;font-variant:normal;font-weight:bold;font-stretch:normal;font-size:3.175px;font-family:sans-serif;-inkscape-font-specification:'sans-serif Bold';text-align:center;text-anchor:middle;fill:#000000;stroke:none;stroke-width:0.264583;stroke-dasharray:none"
           x="13.258147"
           y="10.346396"
           id="text20820"><tspan
             sodipodi:role="line"
             id="tspan20818"
             style="font-style:normal;font-variant:normal;font-weight:bold;font-stretch:normal;font-size:3.175px;font-family:sans-serif;-inkscape-font-specification:'sans-serif Bold';fill:#000000;stroke:none;stroke-width:0.264583"
             x="13.258147"
             y="10.346396">1.</tspan></text>
      </g>
      <g
         id="g20948">
        <g
           id="g17112"
           transform="translate(1.8316498,29.922522)">
          <circle
             style="fill:#ffffff;stroke:#000000;stroke-width:0.264583"
             id="circle17106"
             cx="20.836258"
             cy="20.918282"
             r="9.260416" />
          <text
             xml:space="preserve"
             style="font-style:normal;font-variant:normal;font-weight:normal;font-stretch:normal;font-size:3.175px;font-family:sans-serif;-inkscape-font-specification:sans-serif;fill:#000000;stroke:none;stroke-width:0.264583"
             x="17.238804"
             y="21.784895"
             id="text17110"><tspan
               id="tspan17108"
               style="font-style:normal;font-variant:normal;font-weight:normal;font-stretch:normal;font-family:sans-serif;-inkscape-font-specification:sans-serif;fill:#000000;stroke:none;stroke-width:0.264583"
               x="17.238804"
               y="21.784895"
               sodipodi:role="line">user</tspan></text>
        </g>
        <path
           style="fill:#000000;stroke:#000000;stroke-width:0.360285;stroke-dasharray:none;marker-end:url(#TriangleStart)"
           d="M 31.928324,50.840804 H 77.634739"
           id="path17114" />
        <g
           id="g17138"
           transform="translate(53.092746,-16.470712)">
          <circle
             style="fill:#ffffff;stroke:#000000;stroke-width:0.188359"
             id="circle17116"
             cx="39.148426"
             cy="67.311516"
             r="13.229166" />
          <circle
             style="fill:#ffffff;stroke:#000000;stroke-width:0.264583"
             id="circle17118"
             cx="39.255402"
             cy="70.963509"
             r="9.260416" />
          <text
             xml:space="preserve"
             style="font-style:normal;font-variant:normal;font-weight:normal;font-stretch:normal;font-size:3.175px;font-family:sans-serif;-inkscape-font-specification:sans-serif;text-align:center;text-anchor:middle;fill:#000000;stroke:none;stroke-width:0.264583"
             x="39.213539"
             y="68.098289"
             id="text17124"><tspan
               id="tspan17120"
               style="font-style:normal;font-variant:normal;font-weight:normal;font-stretch:normal;font-family:sans-serif;-inkscape-font-specification:sans-serif;text-align:center;text-anchor:middle;fill:#000000;stroke:none;stroke-width:0.264583"
               x="39.213539"
               y="68.098289"
               sodipodi:role="line">times-</tspan><tspan
               style="font-style:normal;font-variant:normal;font-weight:normal;font-stretch:normal;font-family:sans-serif;-inkscape-font-specification:sans-serif;text-align:center;text-anchor:middle;fill:#000000;stroke:none;stroke-width:0.264583"
               x="39.213539"
               y="72.067039"
               sodipodi:role="line"
               id="tspan17122">called</tspan></text>
          <g
             id="g17132"
             transform="translate(-25.080231,53.369536)">
            <ellipse
               style="fill:#ffffff;stroke:#000000;stroke-width:0.264583;stroke-dasharray:none"
               id="ellipse17126"
               cx="64.335632"
               cy="22.250494"
               rx="4.8792887"
               ry="2.2247369" />
            <text
               xml:space="preserve"
               style="font-style:normal;font-variant:normal;font-weight:bold;font-stretch:normal;font-size:1.91289px;font-family:sans-serif;-inkscape-font-specification:'sans-serif Bold';fill:#000000;stroke:#ffffff;stroke-width:0.159408"
               x="64.335632"
               y="22.963625"
               id="text17130"><tspan
                 style="text-align:center;text-anchor:middle;stroke-width:0.159408"
                 x="64.335632"
                 y="22.963625"
                 sodipodi:role="line"
                 id="tspan17128">0</tspan></text>
          </g>
          <text
             xml:space="preserve"
             style="font-style:normal;font-variant:normal;font-weight:normal;font-stretch:normal;font-size:3.175px;font-family:sans-serif;-inkscape-font-specification:sans-serif;text-align:center;text-anchor:middle;fill:#000000;stroke:none;stroke-width:0.264583"
             x="39.276325"
             y="60.02367"
             id="text17136"><tspan
               sodipodi:role="line"
               id="tspan17134"
               style="font-style:normal;font-variant:normal;font-weight:normal;font-stretch:normal;font-family:sans-serif;-inkscape-font-specification:sans-serif;fill:#000000;stroke:none;stroke-width:0.264583"
               x="39.276325"
               y="60.02367">julius</tspan></text>
        </g>
        <g
           id="g19150"
           transform="translate(11.906456,-42.239861)">
          <path
             id="path971"
             style="fill:#ffffff;stroke:#000000;stroke-width:0.264583;stroke-dasharray:none"
             d="m 45.75369,84.902092 v 3.746541 H 27.114 v 8.864058 h 18.63969 v 3.746539 l 14.16555,-8.178826 z" />
          <text
             xml:space="preserve"
             style="font-style:normal;font-variant:normal;font-weight:normal;font-stretch:normal;font-size:3.175px;font-family:sans-serif;-inkscape-font-specification:sans-serif;text-align:center;text-anchor:middle;fill:#000000;stroke:none;stroke-width:0.264583;stroke-dasharray:none"
             x="43.574238"
             y="93.956581"
             id="text19145"><tspan
               sodipodi:role="line"
               id="tspan19143"
               style="font-style:normal;font-variant:normal;font-weight:normal;font-stretch:normal;font-family:sans-serif;-inkscape-font-specification:sans-serif;fill:#000000;stroke:none;stroke-width:0.264583"
               x="43.574238"
               y="93.956581">'get-times-called</tspan></text>
        </g>
        <g
           id="g15267"
           transform="matrix(0.66733463,0,0,0.66733463,45.031648,18.366913)">
          <path
             id="circle5312-6-9"
             style="fill:#ffffff;stroke:#000000;stroke-width:0.323302"
             d="m 110.40422,24.252421 a 11.315548,11.315548 0 0 0 -11.315547,11.315549 11.315548,11.315548 0 0 0 0.997057,4.626622 l -0.354246,-0.289836 -6.735657,8.623054 13.128443,-2.489801 a 11.315548,11.315548 0 0 0 4.27995,0.845511 11.315548,11.315548 0 0 0 11.31555,-11.31555 11.315548,11.315548 0 0 0 -11.31555,-11.315549 z" />
          <text
             xml:space="preserve"
             style="font-style:normal;font-variant:normal;font-weight:normal;font-stretch:normal;font-size:2.86647px;font-family:sans-serif;-inkscape-font-specification:sans-serif;fill:#000000;stroke:none;stroke-width:0.238872"
             x="110.18855"
             y="37.47213"
             id="text12384-1"><tspan
               style="font-style:normal;font-variant:normal;font-weight:normal;font-stretch:normal;font-family:sans-serif;-inkscape-font-specification:sans-serif;text-align:center;text-anchor:middle;fill:#000000;stroke:none;stroke-width:0.238872"
               x="110.18855"
               y="37.47213"
               sodipodi:role="line"
               id="tspan15260">0</tspan></text>
        </g>
        <text
           xml:space="preserve"
           style="font-style:normal;font-variant:normal;font-weight:bold;font-stretch:normal;font-size:3.175px;font-family:sans-serif;-inkscape-font-specification:'sans-serif Bold';text-align:center;text-anchor:middle;fill:#000000;stroke:none;stroke-width:0.264583;stroke-dasharray:none"
           x="13.258147"
           y="42.605389"
           id="text20840"><tspan
             sodipodi:role="line"
             id="tspan20838"
             style="font-style:normal;font-variant:normal;font-weight:bold;font-stretch:normal;font-size:3.175px;font-family:sans-serif;-inkscape-font-specification:'sans-serif Bold';fill:#000000;stroke:none;stroke-width:0.264583"
             x="13.258147"
             y="42.605389">2.</tspan></text>
      </g>
      <g
         id="g21006">
        <g
           id="g19811"
           transform="translate(1.8316498,66.414239)">
          <circle
             style="fill:#ffffff;stroke:#000000;stroke-width:0.264583"
             id="circle19805"
             cx="20.836258"
             cy="20.918282"
             r="9.260416" />
          <text
             xml:space="preserve"
             style="font-style:normal;font-variant:normal;font-weight:normal;font-stretch:normal;font-size:3.175px;font-family:sans-serif;-inkscape-font-specification:sans-serif;fill:#000000;stroke:none;stroke-width:0.264583"
             x="17.238804"
             y="21.784895"
             id="text19809"><tspan
               id="tspan19807"
               style="font-style:normal;font-variant:normal;font-weight:normal;font-stretch:normal;font-family:sans-serif;-inkscape-font-specification:sans-serif;fill:#000000;stroke:none;stroke-width:0.264583"
               x="17.238804"
               y="21.784895"
               sodipodi:role="line">user</tspan></text>
        </g>
        <path
           style="fill:#000000;stroke:#000000;stroke-width:0.360285;stroke-dasharray:none;marker-end:url(#TriangleStart)"
           d="M 31.928324,87.332521 H 77.634739"
           id="path19813" />
        <g
           id="g19837"
           transform="translate(53.092746,20.021005)">
          <circle
             style="fill:#ffffff;stroke:#000000;stroke-width:0.188359"
             id="circle19815"
             cx="39.148426"
             cy="67.311516"
             r="13.229166" />
          <circle
             style="fill:#ffffff;stroke:#000000;stroke-width:0.264583"
             id="circle19817"
             cx="39.255402"
             cy="70.963509"
             r="9.260416" />
          <text
             xml:space="preserve"
             style="font-style:normal;font-variant:normal;font-weight:normal;font-stretch:normal;font-size:3.175px;font-family:sans-serif;-inkscape-font-specification:sans-serif;text-align:center;text-anchor:middle;fill:#000000;stroke:none;stroke-width:0.264583"
             x="39.290283"
             y="68.098289"
             id="text19823"><tspan
               id="tspan19819"
               style="font-style:normal;font-variant:normal;font-weight:normal;font-stretch:normal;font-family:sans-serif;-inkscape-font-specification:sans-serif;text-align:center;text-anchor:middle;fill:#000000;stroke:none;stroke-width:0.264583"
               x="39.290283"
               y="68.098289"
               sodipodi:role="line">times-</tspan><tspan
               style="font-style:normal;font-variant:normal;font-weight:normal;font-stretch:normal;font-family:sans-serif;-inkscape-font-specification:sans-serif;text-align:center;text-anchor:middle;fill:#000000;stroke:none;stroke-width:0.264583"
               x="39.290283"
               y="72.067039"
               sodipodi:role="line"
               id="tspan19821">called</tspan></text>
          <g
             id="g19831"
             transform="translate(-25.080231,53.369536)">
            <ellipse
               style="fill:#ffffff;stroke:#000000;stroke-width:0.264583;stroke-dasharray:none"
               id="ellipse19825"
               cx="64.335632"
               cy="22.250494"
               rx="4.8792887"
               ry="2.2247369" />
            <text
               xml:space="preserve"
               style="font-style:normal;font-variant:normal;font-weight:bold;font-stretch:normal;font-size:2.11667px;font-family:sans-serif;-inkscape-font-specification:'sans-serif Bold';text-align:center;text-anchor:middle;fill:#000000;stroke:#ffffff;stroke-width:0.159408"
               x="64.293602"
               y="22.947746"
               id="text19829"><tspan
                 style="font-size:2.11667px;text-align:center;text-anchor:middle;stroke-width:0.159408"
                 x="64.293602"
                 y="22.947746"
                 sodipodi:role="line"
                 id="tspan19827">1</tspan></text>
          </g>
          <text
             xml:space="preserve"
             style="font-style:normal;font-variant:normal;font-weight:normal;font-stretch:normal;font-size:3.175px;font-family:sans-serif;-inkscape-font-specification:sans-serif;text-align:center;text-anchor:middle;fill:#000000;stroke:none;stroke-width:0.264583"
             x="39.361595"
             y="59.979649"
             id="text19835"><tspan
               sodipodi:role="line"
               id="tspan19833"
               style="font-style:normal;font-variant:normal;font-weight:normal;font-stretch:normal;font-family:sans-serif;-inkscape-font-specification:sans-serif;fill:#000000;stroke:none;stroke-width:0.264583"
               x="39.361595"
               y="59.979649">julius</tspan></text>
        </g>
        <g
           id="g19845"
           transform="translate(11.906456,-5.748144)">
          <path
             id="path19839"
             style="fill:#ffffff;stroke:#000000;stroke-width:0.264583;stroke-dasharray:none"
             d="m 45.75369,84.902092 v 3.746541 H 27.114 v 8.864058 h 18.63969 v 3.746539 l 14.16555,-8.178826 z" />
          <text
             xml:space="preserve"
             style="font-style:normal;font-variant:normal;font-weight:normal;font-stretch:normal;font-size:3.175px;font-family:sans-serif;-inkscape-font-specification:sans-serif;text-align:center;text-anchor:middle;fill:#000000;stroke:none;stroke-width:0.264583;stroke-dasharray:none"
             x="43.574238"
             y="93.956581"
             id="text19843"><tspan
               sodipodi:role="line"
               style="font-style:normal;font-variant:normal;font-weight:normal;font-stretch:normal;font-family:sans-serif;-inkscape-font-specification:sans-serif;fill:#000000;stroke:none;stroke-width:0.264583"
               x="43.574238"
               y="93.956581"
               id="tspan19882">'greet &quot;Gaius&quot;</tspan></text>
        </g>
        <g
           id="g19900"
           transform="translate(-12.46429,-7.5409359)">
          <path
             id="path19847"
             style="fill:#ffffff;stroke:#000000;stroke-width:0.237938"
             d="m 131.85832,78.419448 a 8.3278082,8.3278082 0 0 0 -8.32781,8.327809 8.3278082,8.3278082 0 0 0 0.7338,3.405016 l -0.26071,-0.213307 -4.95719,6.346235 9.66203,-1.832397 a 8.3278082,8.3278082 0 0 0 3.14988,0.622263 8.3278082,8.3278082 0 0 0 8.32782,-8.32781 8.3278082,8.3278082 0 0 0 -8.32782,-8.327809 z" />
          <text
             xml:space="preserve"
             style="font-style:normal;font-variant:normal;font-weight:normal;font-stretch:normal;font-size:1.91289px;font-family:sans-serif;-inkscape-font-specification:sans-serif;text-align:center;text-anchor:middle;fill:#000000;stroke:none;stroke-width:0.159408"
             x="131.95616"
             y="85.524803"
             id="text19851"><tspan
               style="font-style:normal;font-variant:normal;font-weight:normal;font-stretch:normal;font-family:sans-serif;-inkscape-font-specification:sans-serif;text-align:center;text-anchor:middle;fill:#000000;stroke:none;stroke-width:0.159408"
               x="131.95616"
               y="85.524803"
               sodipodi:role="line"
               id="tspan19849">&quot;[1] Hello Gaius,</tspan><tspan
               style="font-style:normal;font-variant:normal;font-weight:normal;font-stretch:normal;font-family:sans-serif;-inkscape-font-specification:sans-serif;text-align:center;text-anchor:middle;fill:#000000;stroke:none;stroke-width:0.159408"
               x="131.95616"
               y="87.915916"
               sodipodi:role="line"
               id="tspan19886">my name is</tspan><tspan
               style="font-style:normal;font-variant:normal;font-weight:normal;font-stretch:normal;font-family:sans-serif;-inkscape-font-specification:sans-serif;text-align:center;text-anchor:middle;fill:#000000;stroke:none;stroke-width:0.159408"
               x="131.95616"
               y="90.30703"
               sodipodi:role="line"
               id="tspan19888">Julius!&quot;</tspan></text>
        </g>
        <text
           xml:space="preserve"
           style="font-style:normal;font-variant:normal;font-weight:bold;font-stretch:normal;font-size:3.175px;font-family:sans-serif;-inkscape-font-specification:'sans-serif Bold';text-align:center;text-anchor:middle;fill:#000000;stroke:none;stroke-width:0.264583;stroke-dasharray:none"
           x="13.258147"
           y="79.097107"
           id="text20844"><tspan
             sodipodi:role="line"
             id="tspan20842"
             style="font-style:normal;font-variant:normal;font-weight:bold;font-stretch:normal;font-size:3.175px;font-family:sans-serif;-inkscape-font-specification:'sans-serif Bold';fill:#000000;stroke:none;stroke-width:0.264583"
             x="13.258147"
             y="79.097107">3.</tspan></text>
      </g>
      <g
         id="g21064">
        <g
           id="g19981"
           transform="translate(1.8316498,100.28092)">
          <circle
             style="fill:#ffffff;stroke:#000000;stroke-width:0.264583"
             id="circle19975"
             cx="20.836258"
             cy="20.918282"
             r="9.260416" />
          <text
             xml:space="preserve"
             style="font-style:normal;font-variant:normal;font-weight:normal;font-stretch:normal;font-size:3.175px;font-family:sans-serif;-inkscape-font-specification:sans-serif;fill:#000000;stroke:none;stroke-width:0.264583"
             x="17.238804"
             y="21.784895"
             id="text19979"><tspan
               id="tspan19977"
               style="font-style:normal;font-variant:normal;font-weight:normal;font-stretch:normal;font-family:sans-serif;-inkscape-font-specification:sans-serif;fill:#000000;stroke:none;stroke-width:0.264583"
               x="17.238804"
               y="21.784895"
               sodipodi:role="line">user</tspan></text>
        </g>
        <path
           style="fill:#000000;stroke:#000000;stroke-width:0.360285;stroke-dasharray:none;marker-end:url(#TriangleStart)"
           d="M 31.928324,121.1992 H 77.634739"
           id="path19983" />
        <g
           id="g20007"
           transform="translate(53.092746,53.887687)">
          <circle
             style="fill:#ffffff;stroke:#000000;stroke-width:0.188359"
             id="circle19985"
             cx="39.148426"
             cy="67.311516"
             r="13.229166" />
          <circle
             style="fill:#ffffff;stroke:#000000;stroke-width:0.264583"
             id="circle19987"
             cx="39.255402"
             cy="70.963509"
             r="9.260416" />
          <text
             xml:space="preserve"
             style="font-style:normal;font-variant:normal;font-weight:normal;font-stretch:normal;font-size:3.175px;font-family:sans-serif;-inkscape-font-specification:sans-serif;text-align:center;text-anchor:middle;fill:#000000;stroke:none;stroke-width:0.264583"
             x="39.290283"
             y="68.098289"
             id="text19993"><tspan
               id="tspan19989"
               style="font-style:normal;font-variant:normal;font-weight:normal;font-stretch:normal;font-family:sans-serif;-inkscape-font-specification:sans-serif;text-align:center;text-anchor:middle;fill:#000000;stroke:none;stroke-width:0.264583"
               x="39.290283"
               y="68.098289"
               sodipodi:role="line">times-</tspan><tspan
               style="font-style:normal;font-variant:normal;font-weight:normal;font-stretch:normal;font-family:sans-serif;-inkscape-font-specification:sans-serif;text-align:center;text-anchor:middle;fill:#000000;stroke:none;stroke-width:0.264583"
               x="39.290283"
               y="72.067039"
               sodipodi:role="line"
               id="tspan19991">called</tspan></text>
          <g
             id="g20001"
             transform="translate(-25.080231,53.369536)">
            <ellipse
               style="fill:#ffffff;stroke:#000000;stroke-width:0.264583;stroke-dasharray:none"
               id="ellipse19995"
               cx="64.335632"
               cy="22.250494"
               rx="4.8792887"
               ry="2.2247369" />
            <text
               xml:space="preserve"
               style="font-style:normal;font-variant:normal;font-weight:bold;font-stretch:normal;font-size:2.11667px;font-family:sans-serif;-inkscape-font-specification:'sans-serif Bold';text-align:center;text-anchor:middle;fill:#000000;stroke:#ffffff;stroke-width:0.159408"
               x="64.293602"
               y="22.947746"
               id="text19999"><tspan
                 style="font-size:2.11667px;text-align:center;text-anchor:middle;stroke-width:0.159408"
                 x="64.293602"
                 y="22.947746"
                 sodipodi:role="line"
                 id="tspan19997">2</tspan></text>
          </g>
          <text
             xml:space="preserve"
             style="font-style:normal;font-variant:normal;font-weight:normal;font-stretch:normal;font-size:3.175px;font-family:sans-serif;-inkscape-font-specification:sans-serif;text-align:center;text-anchor:middle;fill:#000000;stroke:none;stroke-width:0.264583"
             x="39.361595"
             y="59.979649"
             id="text20005"><tspan
               sodipodi:role="line"
               id="tspan20003"
               style="font-style:normal;font-variant:normal;font-weight:normal;font-stretch:normal;font-family:sans-serif;-inkscape-font-specification:sans-serif;fill:#000000;stroke:none;stroke-width:0.264583"
               x="39.361595"
               y="59.979649">julius</tspan></text>
        </g>
        <g
           id="g20015"
           transform="translate(11.906456,28.118538)">
          <path
             id="path20009"
             style="fill:#ffffff;stroke:#000000;stroke-width:0.264583;stroke-dasharray:none"
             d="m 45.75369,84.902092 v 3.746541 H 27.114 v 8.864058 h 18.63969 v 3.746539 l 14.16555,-8.178826 z" />
          <text
             xml:space="preserve"
             style="font-style:normal;font-variant:normal;font-weight:normal;font-stretch:normal;font-size:3.175px;font-family:sans-serif;-inkscape-font-specification:sans-serif;text-align:center;text-anchor:middle;fill:#000000;stroke:none;stroke-width:0.264583;stroke-dasharray:none"
             x="43.574238"
             y="93.956581"
             id="text20013"><tspan
               sodipodi:role="line"
               style="font-style:normal;font-variant:normal;font-weight:normal;font-stretch:normal;font-family:sans-serif;-inkscape-font-specification:sans-serif;fill:#000000;stroke:none;stroke-width:0.264583"
               x="43.574238"
               y="93.956581"
               id="tspan20011">'greet &quot;Brutus&quot;</tspan></text>
        </g>
        <g
           id="g20068">
          <path
             id="path20017"
             style="fill:#ffffff;stroke:#000000;stroke-width:0.257754"
             d="m 120.48506,104.7551 a 9.021381,9.021381 0 0 0 -9.02138,9.02138 9.021381,9.021381 0 0 0 0.79491,3.6886 l -0.28242,-0.23107 -5.37004,6.87478 10.46672,-1.98501 a 9.021381,9.021381 0 0 0 3.41221,0.67408 9.021381,9.021381 0 0 0 9.0214,-9.02138 9.021381,9.021381 0 0 0 -9.0214,-9.02138 z" />
          <text
             xml:space="preserve"
             style="font-style:normal;font-variant:normal;font-weight:normal;font-stretch:normal;font-size:1.91289px;font-family:sans-serif;-inkscape-font-specification:sans-serif;text-align:center;text-anchor:middle;fill:#000000;stroke:none;stroke-width:0.159408"
             x="120.47421"
             y="112.60679"
             id="text20025"><tspan
               style="font-style:normal;font-variant:normal;font-weight:normal;font-stretch:normal;font-family:sans-serif;-inkscape-font-specification:sans-serif;text-align:center;text-anchor:middle;fill:#000000;stroke:none;stroke-width:0.159408"
               x="120.47421"
               y="112.60679"
               sodipodi:role="line"
               id="tspan20019">&quot;[2] Hello Brutus,</tspan><tspan
               style="font-style:normal;font-variant:normal;font-weight:normal;font-stretch:normal;font-family:sans-serif;-inkscape-font-specification:sans-serif;text-align:center;text-anchor:middle;fill:#000000;stroke:none;stroke-width:0.159408"
               x="120.47421"
               y="114.9979"
               sodipodi:role="line"
               id="tspan20021">my name is</tspan><tspan
               style="font-style:normal;font-variant:normal;font-weight:normal;font-stretch:normal;font-family:sans-serif;-inkscape-font-specification:sans-serif;text-align:center;text-anchor:middle;fill:#000000;stroke:none;stroke-width:0.159408"
               x="120.47421"
               y="117.38902"
               sodipodi:role="line"
               id="tspan20023">Julius!&quot;</tspan></text>
        </g>
        <text
           xml:space="preserve"
           style="font-style:normal;font-variant:normal;font-weight:bold;font-stretch:normal;font-size:3.175px;font-family:sans-serif;-inkscape-font-specification:'sans-serif Bold';text-align:center;text-anchor:middle;fill:#000000;stroke:none;stroke-width:0.264583;stroke-dasharray:none"
           x="13.258147"
           y="112.96379"
           id="text20848"><tspan
             sodipodi:role="line"
             id="tspan20846"
             style="font-style:normal;font-variant:normal;font-weight:bold;font-stretch:normal;font-size:3.175px;font-family:sans-serif;-inkscape-font-specification:'sans-serif Bold';fill:#000000;stroke:none;stroke-width:0.264583"
             x="13.258147"
             y="112.96379">4.</tspan></text>
      </g>
      <g
         id="g21118">
        <g
           id="g20157"
           transform="translate(0.5174087,136.72247)">
          <circle
             style="fill:#ffffff;stroke:#000000;stroke-width:0.264583"
             id="circle20151"
             cx="20.836258"
             cy="20.918282"
             r="9.260416" />
          <text
             xml:space="preserve"
             style="font-style:normal;font-variant:normal;font-weight:normal;font-stretch:normal;font-size:3.175px;font-family:sans-serif;-inkscape-font-specification:sans-serif;fill:#000000;stroke:none;stroke-width:0.264583"
             x="17.238804"
             y="21.784895"
             id="text20155"><tspan
               id="tspan20153"
               style="font-style:normal;font-variant:normal;font-weight:normal;font-stretch:normal;font-family:sans-serif;-inkscape-font-specification:sans-serif;fill:#000000;stroke:none;stroke-width:0.264583"
               x="17.238804"
               y="21.784895"
               sodipodi:role="line">user</tspan></text>
        </g>
        <path
           style="fill:#000000;stroke:#000000;stroke-width:0.360285;stroke-dasharray:none;marker-end:url(#TriangleStart)"
           d="M 30.614083,157.64076 H 76.320498"
           id="path20159" />
        <g
           id="g20183"
           transform="translate(51.778505,90.329239)">
          <circle
             style="fill:#ffffff;stroke:#000000;stroke-width:0.188359"
             id="circle20161"
             cx="39.148426"
             cy="67.311516"
             r="13.229166" />
          <circle
             style="fill:#ffffff;stroke:#000000;stroke-width:0.264583"
             id="circle20163"
             cx="39.255402"
             cy="70.963509"
             r="9.260416" />
          <text
             xml:space="preserve"
             style="font-style:normal;font-variant:normal;font-weight:normal;font-stretch:normal;font-size:3.175px;font-family:sans-serif;-inkscape-font-specification:sans-serif;text-align:center;text-anchor:middle;fill:#000000;stroke:none;stroke-width:0.264583"
             x="39.213539"
             y="68.098289"
             id="text20169"><tspan
               id="tspan20165"
               style="font-style:normal;font-variant:normal;font-weight:normal;font-stretch:normal;font-family:sans-serif;-inkscape-font-specification:sans-serif;text-align:center;text-anchor:middle;fill:#000000;stroke:none;stroke-width:0.264583"
               x="39.213539"
               y="68.098289"
               sodipodi:role="line">times-</tspan><tspan
               style="font-style:normal;font-variant:normal;font-weight:normal;font-stretch:normal;font-family:sans-serif;-inkscape-font-specification:sans-serif;text-align:center;text-anchor:middle;fill:#000000;stroke:none;stroke-width:0.264583"
               x="39.213539"
               y="72.067039"
               sodipodi:role="line"
               id="tspan20167">called</tspan></text>
          <g
             id="g20177"
             transform="translate(-25.080231,53.369536)">
            <ellipse
               style="fill:#ffffff;stroke:#000000;stroke-width:0.264583;stroke-dasharray:none"
               id="ellipse20171"
               cx="64.335632"
               cy="22.250494"
               rx="4.8792887"
               ry="2.2247369" />
            <text
               xml:space="preserve"
               style="font-style:normal;font-variant:normal;font-weight:bold;font-stretch:normal;font-size:1.91289px;font-family:sans-serif;-inkscape-font-specification:'sans-serif Bold';fill:#000000;stroke:#ffffff;stroke-width:0.159408"
               x="64.335632"
               y="22.963625"
               id="text20175"><tspan
                 style="text-align:center;text-anchor:middle;stroke-width:0.159408"
                 x="64.335632"
                 y="22.963625"
                 sodipodi:role="line"
                 id="tspan20173">2</tspan></text>
          </g>
          <text
             xml:space="preserve"
             style="font-style:normal;font-variant:normal;font-weight:normal;font-stretch:normal;font-size:3.175px;font-family:sans-serif;-inkscape-font-specification:sans-serif;text-align:center;text-anchor:middle;fill:#000000;stroke:none;stroke-width:0.264583"
             x="39.276325"
             y="60.02367"
             id="text20181"><tspan
               sodipodi:role="line"
               id="tspan20179"
               style="font-style:normal;font-variant:normal;font-weight:normal;font-stretch:normal;font-family:sans-serif;-inkscape-font-specification:sans-serif;fill:#000000;stroke:none;stroke-width:0.264583"
               x="39.276325"
               y="60.02367">julius</tspan></text>
        </g>
        <g
           id="g20191"
           transform="translate(10.592215,64.56009)">
          <path
             id="path20185"
             style="fill:#ffffff;stroke:#000000;stroke-width:0.264583;stroke-dasharray:none"
             d="m 45.75369,84.902092 v 3.746541 H 27.114 v 8.864058 h 18.63969 v 3.746539 l 14.16555,-8.178826 z" />
          <text
             xml:space="preserve"
             style="font-style:normal;font-variant:normal;font-weight:normal;font-stretch:normal;font-size:3.175px;font-family:sans-serif;-inkscape-font-specification:sans-serif;text-align:center;text-anchor:middle;fill:#000000;stroke:none;stroke-width:0.264583;stroke-dasharray:none"
             x="43.574238"
             y="93.956581"
             id="text20189"><tspan
               sodipodi:role="line"
               id="tspan20187"
               style="font-style:normal;font-variant:normal;font-weight:normal;font-stretch:normal;font-family:sans-serif;-inkscape-font-specification:sans-serif;fill:#000000;stroke:none;stroke-width:0.264583"
               x="43.574238"
               y="93.956581">'get-times-called</tspan></text>
        </g>
        <g
           id="g20199"
           transform="matrix(0.66733463,0,0,0.66733463,43.717407,125.16686)">
          <path
             id="path20193"
             style="fill:#ffffff;stroke:#000000;stroke-width:0.323302"
             d="m 110.40422,24.252421 a 11.315548,11.315548 0 0 0 -11.315547,11.315549 11.315548,11.315548 0 0 0 0.997057,4.626622 l -0.354246,-0.289836 -6.735657,8.623054 13.128443,-2.489801 a 11.315548,11.315548 0 0 0 4.27995,0.845511 11.315548,11.315548 0 0 0 11.31555,-11.31555 11.315548,11.315548 0 0 0 -11.31555,-11.315549 z" />
          <text
             xml:space="preserve"
             style="font-style:normal;font-variant:normal;font-weight:normal;font-stretch:normal;font-size:2.86647px;font-family:sans-serif;-inkscape-font-specification:sans-serif;fill:#000000;stroke:none;stroke-width:0.238872"
             x="110.18855"
             y="37.47213"
             id="text20197"><tspan
               style="font-style:normal;font-variant:normal;font-weight:normal;font-stretch:normal;font-family:sans-serif;-inkscape-font-specification:sans-serif;text-align:center;text-anchor:middle;fill:#000000;stroke:none;stroke-width:0.238872"
               x="110.18855"
               y="37.47213"
               sodipodi:role="line"
               id="tspan20195">2</tspan></text>
        </g>
        <text
           xml:space="preserve"
           style="font-style:normal;font-variant:normal;font-weight:bold;font-stretch:normal;font-size:3.175px;font-family:sans-serif;-inkscape-font-specification:'sans-serif Bold';text-align:center;text-anchor:middle;fill:#000000;stroke:none;stroke-width:0.264583;stroke-dasharray:none"
           x="11.943906"
           y="149.40533"
           id="text20852"><tspan
             sodipodi:role="line"
             id="tspan20850"
             style="font-style:normal;font-variant:normal;font-weight:bold;font-stretch:normal;font-size:3.175px;font-family:sans-serif;-inkscape-font-specification:'sans-serif Bold';fill:#000000;stroke:none;stroke-width:0.264583"
             x="11.943906"
             y="149.40533">5.</tspan></text>
      </g>
    </g>
  </g>
  <metadata
     id="metadata15464">
    <rdf:RDF>
      <cc:Work
         rdf:about="">
        <dc:creator>
          <cc:Agent>
            <dc:title>Juliana Sims</dc:title>
          </cc:Agent>
        </dc:creator>
        <cc:license
           rdf:resource="http://creativecommons.org/licenses/by/4.0/" />
      </cc:Work>
      <cc:License
         rdf:about="http://creativecommons.org/licenses/by/4.0/">
        <cc:permits
           rdf:resource="http://creativecommons.org/ns#Reproduction" />
        <cc:permits
           rdf:resource="http://creativecommons.org/ns#Distribution" />
        <cc:requires
           rdf:resource="http://creativecommons.org/ns#Notice" />
        <cc:requires
           rdf:resource="http://creativecommons.org/ns#Attribution" />
        <cc:permits
           rdf:resource="http://creativecommons.org/ns#DerivativeWorks" />
      </cc:License>
    </rdf:RDF>
  </metadata>
</svg>
