<?xml version="1.0" encoding="UTF-8"?>
<svg xmlns="http://www.w3.org/2000/svg" xmlns:xlink="http://www.w3.org/1999/xlink" width="277.5" height="337.5" viewBox="0 0 277.5 337.5" version="1.1">
<defs>
<g>
<symbol overflow="visible" id="glyph0-0">
<path style="stroke:none;" d="M 1.875 6.625 L 1.875 -26.4375 L 20.625 -26.4375 L 20.625 6.625 Z M 3.96875 4.546875 L 18.53125 4.546875 L 18.53125 -24.328125 L 3.96875 -24.328125 Z M 3.96875 4.546875 "/>
</symbol>
<symbol overflow="visible" id="glyph0-1">
<path style="stroke:none;" d="M 23.265625 -27.34375 L 23.4375 -27.34375 C 30.800781 -27.132812 36.050781 -26.082031 39.1875 -24.1875 C 42.488281 -22.1875 44.140625 -20.148438 44.140625 -18.078125 C 43.703125 -16.203125 42.859375 -15.265625 41.609375 -15.265625 C 41.523438 -15.265625 41.441406 -15.273438 41.359375 -15.296875 L 33.90625 -17.859375 C 33.175781 -18.078125 32.8125 -18.445312 32.8125 -18.96875 C 32.8125 -19.195312 32.882812 -19.46875 33.03125 -19.78125 C 33.863281 -20.644531 34.28125 -21.269531 34.28125 -21.65625 C 34.28125 -21.9375 34.070312 -22.097656 33.65625 -22.140625 L 13.078125 -22.140625 C 12.660156 -22.097656 12.453125 -21.9375 12.453125 -21.65625 C 12.453125 -21.269531 12.867188 -20.644531 13.703125 -19.78125 C 13.847656 -19.488281 13.921875 -19.21875 13.921875 -18.96875 C 13.921875 -18.445312 13.546875 -18.078125 12.796875 -17.859375 L 5.34375 -15.296875 C 5.257812 -15.273438 5.179688 -15.265625 5.109375 -15.265625 C 3.859375 -15.265625 3.007812 -16.203125 2.5625 -18.078125 C 2.5625 -20.148438 4.222656 -22.1875 7.546875 -24.1875 C 10.671875 -26.050781 15.910156 -27.101562 23.265625 -27.34375 Z M 27.6875 -19.78125 L 27.6875 -21.15625 L 30.328125 -21.15625 L 30.328125 -18.359375 C 30.328125 -17.453125 31.796875 -16.648438 34.734375 -15.953125 C 37.554688 -14.785156 38.96875 -12.457031 38.96875 -8.96875 L 38.96875 0 L 7.75 0 L 7.75 -8.96875 C 7.75 -12.457031 9.164062 -14.785156 12 -15.953125 C 14.925781 -16.648438 16.390625 -17.453125 16.390625 -18.359375 L 16.390625 -21.15625 L 19.046875 -21.15625 L 19.046875 -19.78125 Z M 15.90625 -9.765625 C 15.90625 -7.722656 16.625 -5.988281 18.0625 -4.5625 C 19.507812 -3.132812 21.238281 -2.421875 23.25 -2.421875 C 25.300781 -2.421875 27.039062 -3.132812 28.46875 -4.5625 C 29.894531 -5.988281 30.609375 -7.722656 30.609375 -9.765625 C 30.609375 -11.785156 29.894531 -13.515625 28.46875 -14.953125 C 27.050781 -16.398438 25.3125 -17.125 23.25 -17.125 C 21.21875 -17.125 19.484375 -16.398438 18.046875 -14.953125 C 16.617188 -13.515625 15.90625 -11.785156 15.90625 -9.765625 Z M 27.375 -9.78125 C 27.375 -8.644531 26.972656 -7.671875 26.171875 -6.859375 C 25.367188 -6.054688 24.394531 -5.65625 23.25 -5.65625 C 22.113281 -5.65625 21.144531 -6.054688 20.34375 -6.859375 C 19.550781 -7.671875 19.15625 -8.644531 19.15625 -9.78125 C 19.15625 -10.9375 19.550781 -11.914062 20.34375 -12.71875 C 21.144531 -13.519531 22.113281 -13.921875 23.25 -13.921875 C 24.394531 -13.921875 25.367188 -13.519531 26.171875 -12.71875 C 26.972656 -11.914062 27.375 -10.9375 27.375 -9.78125 Z M 24.46875 -15.578125 C 24.46875 -15.304688 24.367188 -15.066406 24.171875 -14.859375 C 23.972656 -14.660156 23.726562 -14.5625 23.4375 -14.5625 C 23.15625 -14.5625 22.910156 -14.660156 22.703125 -14.859375 C 22.503906 -15.066406 22.40625 -15.304688 22.40625 -15.578125 C 22.40625 -15.867188 22.503906 -16.117188 22.703125 -16.328125 C 22.910156 -16.535156 23.15625 -16.640625 23.4375 -16.640625 C 23.726562 -16.640625 23.972656 -16.535156 24.171875 -16.328125 C 24.367188 -16.117188 24.46875 -15.867188 24.46875 -15.578125 Z M 24.46875 -4.0625 C 24.46875 -3.769531 24.367188 -3.519531 24.171875 -3.3125 C 23.972656 -3.113281 23.726562 -3.015625 23.4375 -3.015625 C 23.15625 -3.015625 22.910156 -3.113281 22.703125 -3.3125 C 22.503906 -3.519531 22.40625 -3.769531 22.40625 -4.0625 C 22.40625 -4.34375 22.503906 -4.585938 22.703125 -4.796875 C 22.910156 -5.003906 23.15625 -5.109375 23.4375 -5.109375 C 23.726562 -5.109375 23.972656 -5.003906 24.171875 -4.796875 C 24.367188 -4.585938 24.46875 -4.34375 24.46875 -4.0625 Z M 20.375 -15.484375 C 20.550781 -15.460938 20.71875 -15.335938 20.875 -15.109375 C 21.03125 -14.878906 21.085938 -14.625 21.046875 -14.34375 C 21.015625 -14.0625 20.882812 -13.835938 20.65625 -13.671875 C 20.425781 -13.492188 20.171875 -13.425781 19.890625 -13.46875 C 19.609375 -13.507812 19.378906 -13.644531 19.203125 -13.875 C 19.035156 -14.125 18.972656 -14.382812 19.015625 -14.65625 C 19.066406 -14.925781 19.210938 -15.15625 19.453125 -15.34375 C 19.628906 -15.46875 19.820312 -15.53125 20.03125 -15.53125 C 20.09375 -15.53125 20.207031 -15.515625 20.375 -15.484375 Z M 27.65625 -5.78125 C 27.832031 -5.550781 27.898438 -5.296875 27.859375 -5.015625 C 27.816406 -4.734375 27.671875 -4.503906 27.421875 -4.328125 C 27.242188 -4.203125 27.050781 -4.140625 26.84375 -4.140625 C 26.78125 -4.140625 26.664062 -4.148438 26.5 -4.171875 C 26.332031 -4.203125 26.160156 -4.335938 25.984375 -4.578125 C 25.828125 -4.804688 25.769531 -5.054688 25.8125 -5.328125 C 25.851562 -5.609375 25.988281 -5.832031 26.21875 -6 C 26.445312 -6.164062 26.703125 -6.226562 26.984375 -6.1875 C 27.265625 -6.15625 27.488281 -6.019531 27.65625 -5.78125 Z M 18.25 -12.59375 C 18.539062 -12.5 18.75 -12.328125 18.875 -12.078125 C 19 -11.828125 19.019531 -11.566406 18.9375 -11.296875 C 18.851562 -11.023438 18.679688 -10.828125 18.421875 -10.703125 C 18.160156 -10.578125 17.898438 -10.550781 17.640625 -10.625 C 17.367188 -10.707031 17.175781 -10.851562 17.0625 -11.0625 C 16.957031 -11.269531 16.90625 -11.453125 16.90625 -11.609375 C 16.90625 -11.722656 16.921875 -11.832031 16.953125 -11.9375 C 17.054688 -12.207031 17.234375 -12.40625 17.484375 -12.53125 C 17.734375 -12.65625 17.988281 -12.675781 18.25 -12.59375 Z M 28.46875 -8.96875 C 28.71875 -9.09375 28.972656 -9.113281 29.234375 -9.03125 C 29.503906 -8.945312 29.691406 -8.800781 29.796875 -8.59375 C 29.898438 -8.382812 29.953125 -8.195312 29.953125 -8.03125 C 29.953125 -7.9375 29.9375 -7.835938 29.90625 -7.734375 C 29.800781 -7.460938 29.625 -7.257812 29.375 -7.125 C 29.125 -7 28.863281 -6.988281 28.59375 -7.09375 C 28.332031 -7.175781 28.132812 -7.34375 28 -7.59375 C 27.875 -7.84375 27.851562 -8.109375 27.9375 -8.390625 C 28.039062 -8.660156 28.21875 -8.851562 28.46875 -8.96875 Z M 17.0625 -8.59375 C 17.175781 -8.800781 17.363281 -8.945312 17.625 -9.03125 C 17.894531 -9.113281 18.160156 -9.09375 18.421875 -8.96875 C 18.679688 -8.851562 18.851562 -8.660156 18.9375 -8.390625 C 19.019531 -8.097656 19 -7.828125 18.875 -7.578125 C 18.75 -7.328125 18.554688 -7.148438 18.296875 -7.046875 C 18.003906 -6.972656 17.734375 -7 17.484375 -7.125 C 17.234375 -7.257812 17.054688 -7.460938 16.953125 -7.734375 C 16.921875 -7.835938 16.90625 -7.9375 16.90625 -8.03125 C 16.90625 -8.195312 16.957031 -8.382812 17.0625 -8.59375 Z M 28.59375 -12.59375 C 28.863281 -12.675781 29.125 -12.65625 29.375 -12.53125 C 29.625 -12.40625 29.800781 -12.207031 29.90625 -11.9375 C 29.9375 -11.832031 29.953125 -11.726562 29.953125 -11.625 C 29.953125 -11.46875 29.898438 -11.285156 29.796875 -11.078125 C 29.691406 -10.878906 29.503906 -10.734375 29.234375 -10.640625 C 28.972656 -10.554688 28.707031 -10.578125 28.4375 -10.703125 C 28.175781 -10.828125 28.007812 -11.023438 27.9375 -11.296875 C 27.851562 -11.566406 27.875 -11.828125 28 -12.078125 C 28.132812 -12.328125 28.332031 -12.5 28.59375 -12.59375 Z M 19.203125 -5.78125 C 19.378906 -6 19.609375 -6.128906 19.890625 -6.171875 C 20.171875 -6.222656 20.425781 -6.164062 20.65625 -6 C 20.882812 -5.832031 21.023438 -5.601562 21.078125 -5.3125 C 21.128906 -5.03125 21.0625 -4.785156 20.875 -4.578125 C 20.71875 -4.335938 20.550781 -4.203125 20.375 -4.171875 C 20.207031 -4.148438 20.09375 -4.140625 20.03125 -4.140625 C 19.820312 -4.140625 19.628906 -4.203125 19.453125 -4.328125 C 19.210938 -4.503906 19.078125 -4.675781 19.046875 -4.84375 C 19.015625 -5.019531 19 -5.140625 19 -5.203125 C 19 -5.410156 19.066406 -5.601562 19.203125 -5.78125 Z M 25.984375 -15.109375 C 26.160156 -15.335938 26.332031 -15.460938 26.5 -15.484375 C 26.664062 -15.515625 26.78125 -15.53125 26.84375 -15.53125 C 27.050781 -15.53125 27.242188 -15.46875 27.421875 -15.34375 C 27.671875 -15.15625 27.804688 -14.976562 27.828125 -14.8125 C 27.859375 -14.65625 27.875 -14.550781 27.875 -14.5 C 27.875 -14.28125 27.800781 -14.070312 27.65625 -13.875 C 27.488281 -13.644531 27.320312 -13.515625 27.15625 -13.484375 C 27 -13.460938 26.890625 -13.453125 26.828125 -13.453125 C 26.609375 -13.453125 26.40625 -13.523438 26.21875 -13.671875 C 25.988281 -13.835938 25.859375 -14.003906 25.828125 -14.171875 C 25.804688 -14.335938 25.796875 -14.453125 25.796875 -14.515625 C 25.796875 -14.722656 25.859375 -14.921875 25.984375 -15.109375 Z M 25.984375 -15.109375 "/>
</symbol>
<symbol overflow="visible" id="glyph1-0">
<path style="stroke:none;" d="M 0.890625 3.1875 L 0.890625 -12.6875 L 9.890625 -12.6875 L 9.890625 3.1875 Z M 1.90625 2.1875 L 8.890625 2.1875 L 8.890625 -11.6875 L 1.90625 -11.6875 Z M 1.90625 2.1875 "/>
</symbol>
<symbol overflow="visible" id="glyph1-1">
<path style="stroke:none;" d="M 9.609375 -2.390625 L 4.328125 -2.390625 L 3.484375 0 L 0.09375 0 L 4.953125 -13.125 L 8.984375 -13.125 L 13.84375 0 L 10.4375 0 Z M 5.171875 -4.828125 L 8.765625 -4.828125 L 6.96875 -10.046875 Z M 5.171875 -4.828125 "/>
</symbol>
<symbol overflow="visible" id="glyph1-2">
<path style="stroke:none;" d="M 1.515625 -13.671875 L 4.65625 -13.671875 L 4.65625 0 L 1.515625 0 Z M 1.515625 -13.671875 "/>
</symbol>
<symbol overflow="visible" id="glyph1-3">
<path style="stroke:none;" d="M 0.21875 -9.84375 L 3.359375 -9.84375 L 6.015625 -3.171875 L 8.265625 -9.84375 L 11.40625 -9.84375 L 7.265625 0.9375 C 6.847656 2.03125 6.363281 2.796875 5.8125 3.234375 C 5.257812 3.671875 4.53125 3.890625 3.625 3.890625 L 1.796875 3.890625 L 1.796875 1.8125 L 2.78125 1.8125 C 3.320312 1.8125 3.710938 1.726562 3.953125 1.5625 C 4.191406 1.394531 4.378906 1.09375 4.515625 0.65625 L 4.609375 0.375 Z M 0.21875 -9.84375 "/>
</symbol>
<symbol overflow="visible" id="glyph1-4">
<path style="stroke:none;" d="M 9.203125 -9.53125 L 9.203125 -7.140625 C 8.523438 -7.421875 7.875 -7.628906 7.25 -7.765625 C 6.625 -7.910156 6.03125 -7.984375 5.46875 -7.984375 C 4.875 -7.984375 4.429688 -7.910156 4.140625 -7.765625 C 3.847656 -7.617188 3.703125 -7.390625 3.703125 -7.078125 C 3.703125 -6.828125 3.8125 -6.632812 4.03125 -6.5 C 4.257812 -6.363281 4.65625 -6.265625 5.21875 -6.203125 L 5.78125 -6.125 C 7.382812 -5.914062 8.460938 -5.578125 9.015625 -5.109375 C 9.578125 -4.640625 9.859375 -3.90625 9.859375 -2.90625 C 9.859375 -1.851562 9.472656 -1.0625 8.703125 -0.53125 C 7.929688 -0.0078125 6.773438 0.25 5.234375 0.25 C 4.585938 0.25 3.914062 0.195312 3.21875 0.09375 C 2.53125 0 1.816406 -0.148438 1.078125 -0.359375 L 1.078125 -2.75 C 1.703125 -2.445312 2.34375 -2.21875 3 -2.0625 C 3.664062 -1.914062 4.335938 -1.84375 5.015625 -1.84375 C 5.628906 -1.84375 6.09375 -1.925781 6.40625 -2.09375 C 6.71875 -2.257812 6.875 -2.507812 6.875 -2.84375 C 6.875 -3.125 6.765625 -3.332031 6.546875 -3.46875 C 6.335938 -3.613281 5.914062 -3.722656 5.28125 -3.796875 L 4.71875 -3.875 C 3.320312 -4.039062 2.34375 -4.363281 1.78125 -4.84375 C 1.21875 -5.320312 0.9375 -6.039062 0.9375 -7 C 0.9375 -8.039062 1.289062 -8.8125 2 -9.3125 C 2.71875 -9.820312 3.816406 -10.078125 5.296875 -10.078125 C 5.867188 -10.078125 6.472656 -10.03125 7.109375 -9.9375 C 7.753906 -9.851562 8.453125 -9.71875 9.203125 -9.53125 Z M 9.203125 -9.53125 "/>
</symbol>
<symbol overflow="visible" id="glyph1-5">
<path style="stroke:none;" d="M 5.921875 -4.4375 C 5.265625 -4.4375 4.769531 -4.320312 4.4375 -4.09375 C 4.113281 -3.875 3.953125 -3.546875 3.953125 -3.109375 C 3.953125 -2.710938 4.082031 -2.398438 4.34375 -2.171875 C 4.613281 -1.953125 4.984375 -1.84375 5.453125 -1.84375 C 6.046875 -1.84375 6.546875 -2.050781 6.953125 -2.46875 C 7.359375 -2.894531 7.5625 -3.425781 7.5625 -4.0625 L 7.5625 -4.4375 Z M 10.734375 -5.609375 L 10.734375 0 L 7.5625 0 L 7.5625 -1.453125 C 7.132812 -0.859375 6.65625 -0.425781 6.125 -0.15625 C 5.601562 0.113281 4.960938 0.25 4.203125 0.25 C 3.191406 0.25 2.367188 -0.046875 1.734375 -0.640625 C 1.097656 -1.234375 0.78125 -2.003906 0.78125 -2.953125 C 0.78125 -4.109375 1.175781 -4.953125 1.96875 -5.484375 C 2.757812 -6.023438 4.003906 -6.296875 5.703125 -6.296875 L 7.5625 -6.296875 L 7.5625 -6.546875 C 7.5625 -7.046875 7.363281 -7.410156 6.96875 -7.640625 C 6.570312 -7.867188 5.960938 -7.984375 5.140625 -7.984375 C 4.460938 -7.984375 3.832031 -7.914062 3.25 -7.78125 C 2.664062 -7.644531 2.128906 -7.445312 1.640625 -7.1875 L 1.640625 -9.578125 C 2.304688 -9.742188 2.976562 -9.867188 3.65625 -9.953125 C 4.34375 -10.035156 5.023438 -10.078125 5.703125 -10.078125 C 7.484375 -10.078125 8.765625 -9.726562 9.546875 -9.03125 C 10.335938 -8.332031 10.734375 -7.191406 10.734375 -5.609375 Z M 10.734375 -5.609375 "/>
</symbol>
<symbol overflow="visible" id="glyph1-6">
<path style="stroke:none;" d=""/>
</symbol>
<symbol overflow="visible" id="glyph1-7">
<path style="stroke:none;" d="M 10.359375 -4.671875 L 1.03125 -4.671875 L 1.03125 -6.609375 L 10.359375 -6.609375 L 10.359375 -9.5 L 14.203125 -5.640625 L 10.359375 -1.796875 Z M 10.359375 -4.671875 "/>
</symbol>
<symbol overflow="visible" id="glyph1-8">
<path style="stroke:none;" d="M 1.65625 -13.125 L 5.03125 -13.125 L 5.03125 -1.28125 C 5.03125 0.351562 4.585938 1.578125 3.703125 2.390625 C 2.816406 3.203125 1.472656 3.609375 -0.328125 3.609375 L -1.015625 3.609375 L -1.015625 1.046875 L -0.484375 1.046875 C 0.222656 1.046875 0.753906 0.847656 1.109375 0.453125 C 1.472656 0.0664062 1.65625 -0.507812 1.65625 -1.28125 Z M 1.65625 -13.125 "/>
</symbol>
<symbol overflow="visible" id="glyph1-9">
<path style="stroke:none;" d="M 11.40625 -6 L 11.40625 0 L 8.25 0 L 8.25 -4.59375 C 8.25 -5.4375 8.226562 -6.019531 8.1875 -6.34375 C 8.144531 -6.664062 8.078125 -6.90625 7.984375 -7.0625 C 7.867188 -7.257812 7.703125 -7.414062 7.484375 -7.53125 C 7.273438 -7.644531 7.035156 -7.703125 6.765625 -7.703125 C 6.109375 -7.703125 5.59375 -7.445312 5.21875 -6.9375 C 4.84375 -6.4375 4.65625 -5.738281 4.65625 -4.84375 L 4.65625 0 L 1.515625 0 L 1.515625 -9.84375 L 4.65625 -9.84375 L 4.65625 -8.40625 C 5.132812 -8.976562 5.640625 -9.398438 6.171875 -9.671875 C 6.703125 -9.941406 7.289062 -10.078125 7.9375 -10.078125 C 9.070312 -10.078125 9.929688 -9.726562 10.515625 -9.03125 C 11.109375 -8.332031 11.40625 -7.320312 11.40625 -6 Z M 11.40625 -6 "/>
</symbol>
<symbol overflow="visible" id="glyph1-10">
<path style="stroke:none;" d="M 11.34375 -4.953125 L 11.34375 -4.046875 L 3.984375 -4.046875 C 4.054688 -3.304688 4.320312 -2.753906 4.78125 -2.390625 C 5.238281 -2.023438 5.878906 -1.84375 6.703125 -1.84375 C 7.359375 -1.84375 8.035156 -1.9375 8.734375 -2.125 C 9.429688 -2.320312 10.144531 -2.625 10.875 -3.03125 L 10.875 -0.59375 C 10.125 -0.3125 9.378906 -0.101562 8.640625 0.03125 C 7.898438 0.175781 7.15625 0.25 6.40625 0.25 C 4.625 0.25 3.238281 -0.203125 2.25 -1.109375 C 1.269531 -2.015625 0.78125 -3.28125 0.78125 -4.90625 C 0.78125 -6.519531 1.265625 -7.785156 2.234375 -8.703125 C 3.203125 -9.617188 4.535156 -10.078125 6.234375 -10.078125 C 7.773438 -10.078125 9.007812 -9.609375 9.9375 -8.671875 C 10.875 -7.742188 11.34375 -6.503906 11.34375 -4.953125 Z M 8.109375 -6 C 8.109375 -6.59375 7.929688 -7.070312 7.578125 -7.4375 C 7.234375 -7.800781 6.78125 -7.984375 6.21875 -7.984375 C 5.601562 -7.984375 5.101562 -7.8125 4.71875 -7.46875 C 4.34375 -7.132812 4.109375 -6.644531 4.015625 -6 Z M 8.109375 -6 "/>
</symbol>
<symbol overflow="visible" id="glyph1-11">
<path style="stroke:none;" d="M 1.65625 -13.125 L 5.4375 -13.125 L 10.203125 -4.125 L 10.203125 -13.125 L 13.40625 -13.125 L 13.40625 0 L 9.640625 0 L 4.859375 -9 L 4.859375 0 L 1.65625 0 Z M 1.65625 -13.125 "/>
</symbol>
<symbol overflow="visible" id="glyph1-12">
<path style="stroke:none;" d="M 10.640625 -8.203125 C 11.035156 -8.816406 11.503906 -9.28125 12.046875 -9.59375 C 12.597656 -9.914062 13.203125 -10.078125 13.859375 -10.078125 C 14.992188 -10.078125 15.851562 -9.726562 16.4375 -9.03125 C 17.03125 -8.332031 17.328125 -7.320312 17.328125 -6 L 17.328125 0 L 14.171875 0 L 14.171875 -5.140625 C 14.171875 -5.210938 14.171875 -5.289062 14.171875 -5.375 C 14.179688 -5.457031 14.1875 -5.570312 14.1875 -5.71875 C 14.1875 -6.414062 14.082031 -6.921875 13.875 -7.234375 C 13.675781 -7.546875 13.347656 -7.703125 12.890625 -7.703125 C 12.285156 -7.703125 11.820312 -7.457031 11.5 -6.96875 C 11.175781 -6.476562 11.007812 -5.765625 11 -4.828125 L 11 0 L 7.828125 0 L 7.828125 -5.140625 C 7.828125 -6.222656 7.734375 -6.921875 7.546875 -7.234375 C 7.359375 -7.546875 7.023438 -7.703125 6.546875 -7.703125 C 5.941406 -7.703125 5.472656 -7.453125 5.140625 -6.953125 C 4.816406 -6.460938 4.65625 -5.757812 4.65625 -4.84375 L 4.65625 0 L 1.5 0 L 1.5 -9.84375 L 4.65625 -9.84375 L 4.65625 -8.40625 C 5.039062 -8.957031 5.484375 -9.375 5.984375 -9.65625 C 6.484375 -9.9375 7.035156 -10.078125 7.640625 -10.078125 C 8.328125 -10.078125 8.929688 -9.910156 9.453125 -9.578125 C 9.972656 -9.253906 10.367188 -8.796875 10.640625 -8.203125 Z M 10.640625 -8.203125 "/>
</symbol>
<symbol overflow="visible" id="glyph2-0">
<path style="stroke:none;" d="M 0.75 2.65625 L 0.75 -10.578125 L 8.25 -10.578125 L 8.25 2.65625 Z M 1.59375 1.8125 L 7.40625 1.8125 L 7.40625 -9.734375 L 1.59375 -9.734375 Z M 1.59375 1.8125 "/>
</symbol>
<symbol overflow="visible" id="glyph2-1">
<path style="stroke:none;" d="M 1.375 -10.9375 L 8.984375 -10.9375 L 8.984375 -8.796875 L 4.203125 -8.796875 L 4.203125 -6.765625 L 8.703125 -6.765625 L 8.703125 -4.640625 L 4.203125 -4.640625 L 4.203125 0 L 1.375 0 Z M 1.375 -10.9375 "/>
</symbol>
<symbol overflow="visible" id="glyph2-2">
<path style="stroke:none;" d="M 4.9375 -3.6875 C 4.382812 -3.6875 3.96875 -3.59375 3.6875 -3.40625 C 3.414062 -3.226562 3.28125 -2.957031 3.28125 -2.59375 C 3.28125 -2.257812 3.390625 -2 3.609375 -1.8125 C 3.835938 -1.625 4.148438 -1.53125 4.546875 -1.53125 C 5.035156 -1.53125 5.445312 -1.707031 5.78125 -2.0625 C 6.125 -2.414062 6.296875 -2.859375 6.296875 -3.390625 L 6.296875 -3.6875 Z M 8.9375 -4.6875 L 8.9375 0 L 6.296875 0 L 6.296875 -1.21875 C 5.941406 -0.71875 5.546875 -0.351562 5.109375 -0.125 C 4.671875 0.101562 4.140625 0.21875 3.515625 0.21875 C 2.660156 0.21875 1.96875 -0.03125 1.4375 -0.53125 C 0.90625 -1.03125 0.640625 -1.675781 0.640625 -2.46875 C 0.640625 -3.425781 0.96875 -4.128906 1.625 -4.578125 C 2.289062 -5.023438 3.332031 -5.25 4.75 -5.25 L 6.296875 -5.25 L 6.296875 -5.453125 C 6.296875 -5.867188 6.128906 -6.171875 5.796875 -6.359375 C 5.472656 -6.554688 4.96875 -6.65625 4.28125 -6.65625 C 3.71875 -6.65625 3.191406 -6.597656 2.703125 -6.484375 C 2.222656 -6.378906 1.773438 -6.210938 1.359375 -5.984375 L 1.359375 -7.984375 C 1.921875 -8.117188 2.484375 -8.222656 3.046875 -8.296875 C 3.617188 -8.367188 4.1875 -8.40625 4.75 -8.40625 C 6.226562 -8.40625 7.296875 -8.113281 7.953125 -7.53125 C 8.609375 -6.945312 8.9375 -6 8.9375 -4.6875 Z M 8.9375 -4.6875 "/>
</symbol>
<symbol overflow="visible" id="glyph2-3">
<path style="stroke:none;" d="M 7.890625 -7.953125 L 7.890625 -5.8125 C 7.535156 -6.050781 7.175781 -6.226562 6.8125 -6.34375 C 6.457031 -6.46875 6.085938 -6.53125 5.703125 -6.53125 C 4.960938 -6.53125 4.390625 -6.316406 3.984375 -5.890625 C 3.578125 -5.460938 3.375 -4.863281 3.375 -4.09375 C 3.375 -3.320312 3.578125 -2.722656 3.984375 -2.296875 C 4.390625 -1.867188 4.960938 -1.65625 5.703125 -1.65625 C 6.109375 -1.65625 6.492188 -1.71875 6.859375 -1.84375 C 7.234375 -1.96875 7.578125 -2.148438 7.890625 -2.390625 L 7.890625 -0.234375 C 7.472656 -0.0859375 7.050781 0.0195312 6.625 0.09375 C 6.207031 0.175781 5.789062 0.21875 5.375 0.21875 C 3.894531 0.21875 2.734375 -0.160156 1.890625 -0.921875 C 1.054688 -1.679688 0.640625 -2.738281 0.640625 -4.09375 C 0.640625 -5.445312 1.054688 -6.503906 1.890625 -7.265625 C 2.734375 -8.023438 3.894531 -8.40625 5.375 -8.40625 C 5.800781 -8.40625 6.222656 -8.363281 6.640625 -8.28125 C 7.054688 -8.207031 7.472656 -8.097656 7.890625 -7.953125 Z M 7.890625 -7.953125 "/>
</symbol>
<symbol overflow="visible" id="glyph2-4">
<path style="stroke:none;" d="M 1.171875 -3.1875 L 1.171875 -8.203125 L 3.8125 -8.203125 L 3.8125 -7.390625 C 3.8125 -6.941406 3.804688 -6.378906 3.796875 -5.703125 C 3.796875 -5.035156 3.796875 -4.585938 3.796875 -4.359375 C 3.796875 -3.703125 3.8125 -3.226562 3.84375 -2.9375 C 3.875 -2.644531 3.929688 -2.4375 4.015625 -2.3125 C 4.128906 -2.132812 4.269531 -2 4.4375 -1.90625 C 4.613281 -1.8125 4.816406 -1.765625 5.046875 -1.765625 C 5.585938 -1.765625 6.015625 -1.972656 6.328125 -2.390625 C 6.640625 -2.816406 6.796875 -3.40625 6.796875 -4.15625 L 6.796875 -8.203125 L 9.421875 -8.203125 L 9.421875 0 L 6.796875 0 L 6.796875 -1.1875 C 6.398438 -0.707031 5.976562 -0.351562 5.53125 -0.125 C 5.09375 0.101562 4.609375 0.21875 4.078125 0.21875 C 3.128906 0.21875 2.40625 -0.0703125 1.90625 -0.65625 C 1.414062 -1.238281 1.171875 -2.082031 1.171875 -3.1875 Z M 1.171875 -3.1875 "/>
</symbol>
<symbol overflow="visible" id="glyph2-5">
<path style="stroke:none;" d="M 1.265625 -11.390625 L 3.875 -11.390625 L 3.875 0 L 1.265625 0 Z M 1.265625 -11.390625 "/>
</symbol>
<symbol overflow="visible" id="glyph2-6">
<path style="stroke:none;" d="M 4.125 -10.53125 L 4.125 -8.203125 L 6.828125 -8.203125 L 6.828125 -6.328125 L 4.125 -6.328125 L 4.125 -2.84375 C 4.125 -2.46875 4.195312 -2.210938 4.34375 -2.078125 C 4.5 -1.941406 4.800781 -1.875 5.25 -1.875 L 6.59375 -1.875 L 6.59375 0 L 4.34375 0 C 3.3125 0 2.578125 -0.210938 2.140625 -0.640625 C 1.710938 -1.078125 1.5 -1.8125 1.5 -2.84375 L 1.5 -6.328125 L 0.203125 -6.328125 L 0.203125 -8.203125 L 1.5 -8.203125 L 1.5 -10.53125 Z M 4.125 -10.53125 "/>
</symbol>
<symbol overflow="visible" id="glyph2-7">
<path style="stroke:none;" d="M 0.1875 -8.203125 L 2.8125 -8.203125 L 5.015625 -2.640625 L 6.890625 -8.203125 L 9.5 -8.203125 L 6.0625 0.78125 C 5.707031 1.6875 5.300781 2.320312 4.84375 2.6875 C 4.382812 3.050781 3.773438 3.234375 3.015625 3.234375 L 1.5 3.234375 L 1.5 1.515625 L 2.328125 1.515625 C 2.765625 1.515625 3.082031 1.441406 3.28125 1.296875 C 3.488281 1.160156 3.648438 0.910156 3.765625 0.546875 L 3.84375 0.3125 Z M 0.1875 -8.203125 "/>
</symbol>
<symbol overflow="visible" id="glyph2-8">
<path style="stroke:none;" d=""/>
</symbol>
<symbol overflow="visible" id="glyph2-9">
<path style="stroke:none;" d="M 8.625 -3.890625 L 0.859375 -3.890625 L 0.859375 -5.515625 L 8.625 -5.515625 L 8.625 -7.90625 L 11.84375 -4.703125 L 8.625 -1.5 Z M 8.625 -3.890625 "/>
</symbol>
<symbol overflow="visible" id="glyph2-10">
<path style="stroke:none;" d="M 4.203125 -8.796875 L 4.203125 -2.125 L 5.203125 -2.125 C 6.359375 -2.125 7.238281 -2.410156 7.84375 -2.984375 C 8.457031 -3.554688 8.765625 -4.390625 8.765625 -5.484375 C 8.765625 -6.566406 8.457031 -7.390625 7.84375 -7.953125 C 7.238281 -8.515625 6.359375 -8.796875 5.203125 -8.796875 Z M 1.375 -10.9375 L 4.34375 -10.9375 C 6.007812 -10.9375 7.25 -10.816406 8.0625 -10.578125 C 8.875 -10.335938 9.570312 -9.9375 10.15625 -9.375 C 10.664062 -8.882812 11.046875 -8.316406 11.296875 -7.671875 C 11.546875 -7.023438 11.671875 -6.296875 11.671875 -5.484375 C 11.671875 -4.648438 11.546875 -3.910156 11.296875 -3.265625 C 11.046875 -2.617188 10.664062 -2.050781 10.15625 -1.5625 C 9.5625 -0.988281 8.851562 -0.582031 8.03125 -0.34375 C 7.21875 -0.113281 5.988281 0 4.34375 0 L 1.375 0 Z M 1.375 -10.9375 "/>
</symbol>
<symbol overflow="visible" id="glyph2-11">
<path style="stroke:none;" d="M 7.359375 -5.96875 C 7.128906 -6.070312 6.898438 -6.148438 6.671875 -6.203125 C 6.441406 -6.253906 6.210938 -6.28125 5.984375 -6.28125 C 5.304688 -6.28125 4.785156 -6.0625 4.421875 -5.625 C 4.054688 -5.195312 3.875 -4.582031 3.875 -3.78125 L 3.875 0 L 1.265625 0 L 1.265625 -8.203125 L 3.875 -8.203125 L 3.875 -6.859375 C 4.21875 -7.390625 4.609375 -7.78125 5.046875 -8.03125 C 5.484375 -8.28125 6.003906 -8.40625 6.609375 -8.40625 C 6.703125 -8.40625 6.796875 -8.398438 6.890625 -8.390625 C 6.992188 -8.378906 7.144531 -8.363281 7.34375 -8.34375 Z M 7.359375 -5.96875 "/>
</symbol>
<symbol overflow="visible" id="glyph2-12">
<path style="stroke:none;" d="M 1.53125 -2.828125 L 4.171875 -2.828125 L 4.171875 0 L 1.53125 0 Z M 1.53125 -2.828125 "/>
</symbol>
<symbol overflow="visible" id="glyph2-13">
<path style="stroke:none;" d="M 1.375 -10.9375 L 4.53125 -10.9375 L 8.5 -3.4375 L 8.5 -10.9375 L 11.171875 -10.9375 L 11.171875 0 L 8.03125 0 L 4.046875 -7.5 L 4.046875 0 L 1.375 0 Z M 1.375 -10.9375 "/>
</symbol>
<symbol overflow="visible" id="glyph2-14">
<path style="stroke:none;" d="M 8.859375 -6.84375 C 9.191406 -7.351562 9.585938 -7.738281 10.046875 -8 C 10.503906 -8.269531 11.003906 -8.40625 11.546875 -8.40625 C 12.492188 -8.40625 13.210938 -8.113281 13.703125 -7.53125 C 14.191406 -6.945312 14.4375 -6.101562 14.4375 -5 L 14.4375 0 L 11.8125 0 L 11.8125 -4.28125 C 11.8125 -4.34375 11.8125 -4.40625 11.8125 -4.46875 C 11.820312 -4.539062 11.828125 -4.640625 11.828125 -4.765625 C 11.828125 -5.347656 11.738281 -5.769531 11.5625 -6.03125 C 11.394531 -6.289062 11.117188 -6.421875 10.734375 -6.421875 C 10.234375 -6.421875 9.847656 -6.210938 9.578125 -5.796875 C 9.304688 -5.390625 9.164062 -4.800781 9.15625 -4.03125 L 9.15625 0 L 6.53125 0 L 6.53125 -4.28125 C 6.53125 -5.1875 6.453125 -5.769531 6.296875 -6.03125 C 6.140625 -6.289062 5.859375 -6.421875 5.453125 -6.421875 C 4.953125 -6.421875 4.5625 -6.210938 4.28125 -5.796875 C 4.007812 -5.390625 3.875 -4.800781 3.875 -4.03125 L 3.875 0 L 1.25 0 L 1.25 -8.203125 L 3.875 -8.203125 L 3.875 -7 C 4.195312 -7.46875 4.566406 -7.816406 4.984375 -8.046875 C 5.410156 -8.285156 5.875 -8.40625 6.375 -8.40625 C 6.9375 -8.40625 7.4375 -8.265625 7.875 -7.984375 C 8.3125 -7.710938 8.640625 -7.332031 8.859375 -6.84375 Z M 8.859375 -6.84375 "/>
</symbol>
<symbol overflow="visible" id="glyph3-0">
<path style="stroke:none;" d="M 0.890625 3.1875 L 0.890625 -12.6875 L 9.890625 -12.6875 L 9.890625 3.1875 Z M 1.90625 2.1875 L 8.890625 2.1875 L 8.890625 -11.6875 L 1.90625 -11.6875 Z M 1.90625 2.1875 "/>
</symbol>
<symbol overflow="visible" id="glyph3-1">
<path style="stroke:none;" d="M 6.171875 -4.953125 C 4.859375 -4.953125 3.953125 -4.800781 3.453125 -4.5 C 2.953125 -4.195312 2.703125 -3.6875 2.703125 -2.96875 C 2.703125 -2.394531 2.890625 -1.9375 3.265625 -1.59375 C 3.640625 -1.257812 4.15625 -1.09375 4.8125 -1.09375 C 5.707031 -1.09375 6.425781 -1.410156 6.96875 -2.046875 C 7.507812 -2.679688 7.78125 -3.53125 7.78125 -4.59375 L 7.78125 -4.953125 Z M 9.390625 -5.609375 L 9.390625 0 L 7.78125 0 L 7.78125 -1.5 C 7.40625 -0.894531 6.941406 -0.453125 6.390625 -0.171875 C 5.847656 0.109375 5.175781 0.25 4.375 0.25 C 3.363281 0.25 2.5625 -0.03125 1.96875 -0.59375 C 1.375 -1.15625 1.078125 -1.910156 1.078125 -2.859375 C 1.078125 -3.972656 1.445312 -4.8125 2.1875 -5.375 C 2.9375 -5.9375 4.046875 -6.21875 5.515625 -6.21875 L 7.78125 -6.21875 L 7.78125 -6.375 C 7.78125 -7.113281 7.535156 -7.6875 7.046875 -8.09375 C 6.554688 -8.5 5.867188 -8.703125 4.984375 -8.703125 C 4.421875 -8.703125 3.875 -8.632812 3.34375 -8.5 C 2.8125 -8.375 2.296875 -8.175781 1.796875 -7.90625 L 1.796875 -9.390625 C 2.390625 -9.617188 2.960938 -9.789062 3.515625 -9.90625 C 4.078125 -10.019531 4.625 -10.078125 5.15625 -10.078125 C 6.570312 -10.078125 7.628906 -9.707031 8.328125 -8.96875 C 9.035156 -8.226562 9.390625 -7.109375 9.390625 -5.609375 Z M 9.390625 -5.609375 "/>
</symbol>
<symbol overflow="visible" id="glyph3-2">
<path style="stroke:none;" d="M 8.78125 -9.46875 L 8.78125 -7.953125 C 8.320312 -8.203125 7.863281 -8.390625 7.40625 -8.515625 C 6.945312 -8.640625 6.484375 -8.703125 6.015625 -8.703125 C 4.960938 -8.703125 4.144531 -8.367188 3.5625 -7.703125 C 2.988281 -7.046875 2.703125 -6.113281 2.703125 -4.90625 C 2.703125 -3.707031 2.988281 -2.773438 3.5625 -2.109375 C 4.144531 -1.441406 4.960938 -1.109375 6.015625 -1.109375 C 6.484375 -1.109375 6.945312 -1.171875 7.40625 -1.296875 C 7.863281 -1.429688 8.320312 -1.625 8.78125 -1.875 L 8.78125 -0.375 C 8.332031 -0.164062 7.863281 -0.0078125 7.375 0.09375 C 6.894531 0.195312 6.382812 0.25 5.84375 0.25 C 4.351562 0.25 3.171875 -0.210938 2.296875 -1.140625 C 1.429688 -2.078125 1 -3.332031 1 -4.90625 C 1 -6.519531 1.4375 -7.785156 2.3125 -8.703125 C 3.195312 -9.617188 4.40625 -10.078125 5.9375 -10.078125 C 6.4375 -10.078125 6.921875 -10.023438 7.390625 -9.921875 C 7.867188 -9.828125 8.332031 -9.675781 8.78125 -9.46875 Z M 8.78125 -9.46875 "/>
</symbol>
<symbol overflow="visible" id="glyph3-3">
<path style="stroke:none;" d="M 10.109375 -5.328125 L 10.109375 -4.53125 L 2.6875 -4.53125 C 2.75 -3.414062 3.082031 -2.566406 3.6875 -1.984375 C 4.289062 -1.398438 5.128906 -1.109375 6.203125 -1.109375 C 6.816406 -1.109375 7.414062 -1.1875 8 -1.34375 C 8.582031 -1.5 9.160156 -1.726562 9.734375 -2.03125 L 9.734375 -0.5 C 9.160156 -0.25 8.566406 -0.0625 7.953125 0.0625 C 7.347656 0.1875 6.726562 0.25 6.09375 0.25 C 4.53125 0.25 3.289062 -0.203125 2.375 -1.109375 C 1.457031 -2.023438 1 -3.265625 1 -4.828125 C 1 -6.441406 1.429688 -7.71875 2.296875 -8.65625 C 3.171875 -9.601562 4.34375 -10.078125 5.8125 -10.078125 C 7.144531 -10.078125 8.191406 -9.648438 8.953125 -8.796875 C 9.722656 -7.953125 10.109375 -6.796875 10.109375 -5.328125 Z M 8.5 -5.796875 C 8.488281 -6.679688 8.238281 -7.382812 7.75 -7.90625 C 7.269531 -8.4375 6.632812 -8.703125 5.84375 -8.703125 C 4.9375 -8.703125 4.210938 -8.445312 3.671875 -7.9375 C 3.128906 -7.4375 2.816406 -6.722656 2.734375 -5.796875 Z M 8.5 -5.796875 "/>
</symbol>
<symbol overflow="visible" id="glyph3-4">
<path style="stroke:none;" d="M 3.265625 -1.484375 L 3.265625 3.75 L 1.640625 3.75 L 1.640625 -9.84375 L 3.265625 -9.84375 L 3.265625 -8.34375 C 3.597656 -8.9375 4.023438 -9.375 4.546875 -9.65625 C 5.066406 -9.9375 5.6875 -10.078125 6.40625 -10.078125 C 7.601562 -10.078125 8.570312 -9.601562 9.3125 -8.65625 C 10.0625 -7.707031 10.4375 -6.457031 10.4375 -4.90625 C 10.4375 -3.363281 10.0625 -2.117188 9.3125 -1.171875 C 8.570312 -0.222656 7.601562 0.25 6.40625 0.25 C 5.6875 0.25 5.066406 0.109375 4.546875 -0.171875 C 4.023438 -0.453125 3.597656 -0.890625 3.265625 -1.484375 Z M 8.765625 -4.90625 C 8.765625 -6.101562 8.519531 -7.039062 8.03125 -7.71875 C 7.539062 -8.394531 6.867188 -8.734375 6.015625 -8.734375 C 5.160156 -8.734375 4.488281 -8.394531 4 -7.71875 C 3.507812 -7.039062 3.265625 -6.101562 3.265625 -4.90625 C 3.265625 -3.71875 3.507812 -2.785156 4 -2.109375 C 4.488281 -1.429688 5.160156 -1.09375 6.015625 -1.09375 C 6.867188 -1.09375 7.539062 -1.429688 8.03125 -2.109375 C 8.519531 -2.785156 8.765625 -3.71875 8.765625 -4.90625 Z M 8.765625 -4.90625 "/>
</symbol>
<symbol overflow="visible" id="glyph3-5">
<path style="stroke:none;" d="M 3.296875 -12.640625 L 3.296875 -9.84375 L 6.625 -9.84375 L 6.625 -8.59375 L 3.296875 -8.59375 L 3.296875 -3.25 C 3.296875 -2.445312 3.40625 -1.929688 3.625 -1.703125 C 3.84375 -1.472656 4.289062 -1.359375 4.96875 -1.359375 L 6.625 -1.359375 L 6.625 0 L 4.96875 0 C 3.71875 0 2.851562 -0.226562 2.375 -0.6875 C 1.90625 -1.15625 1.671875 -2.007812 1.671875 -3.25 L 1.671875 -8.59375 L 0.484375 -8.59375 L 0.484375 -9.84375 L 1.671875 -9.84375 L 1.671875 -12.640625 Z M 3.296875 -12.640625 "/>
</symbol>
<symbol overflow="visible" id="glyph3-6">
<path style="stroke:none;" d="M 8.171875 -8.34375 L 8.171875 -13.671875 L 9.796875 -13.671875 L 9.796875 0 L 8.171875 0 L 8.171875 -1.484375 C 7.835938 -0.890625 7.410156 -0.453125 6.890625 -0.171875 C 6.367188 0.109375 5.742188 0.25 5.015625 0.25 C 3.828125 0.25 2.859375 -0.222656 2.109375 -1.171875 C 1.367188 -2.117188 1 -3.363281 1 -4.90625 C 1 -6.457031 1.367188 -7.707031 2.109375 -8.65625 C 2.859375 -9.601562 3.828125 -10.078125 5.015625 -10.078125 C 5.742188 -10.078125 6.367188 -9.9375 6.890625 -9.65625 C 7.410156 -9.375 7.835938 -8.9375 8.171875 -8.34375 Z M 2.65625 -4.90625 C 2.65625 -3.71875 2.898438 -2.785156 3.390625 -2.109375 C 3.878906 -1.429688 4.554688 -1.09375 5.421875 -1.09375 C 6.273438 -1.09375 6.945312 -1.429688 7.4375 -2.109375 C 7.925781 -2.785156 8.171875 -3.71875 8.171875 -4.90625 C 8.171875 -6.101562 7.925781 -7.039062 7.4375 -7.71875 C 6.945312 -8.394531 6.273438 -8.734375 5.421875 -8.734375 C 4.554688 -8.734375 3.878906 -8.394531 3.390625 -7.71875 C 2.898438 -7.039062 2.65625 -6.101562 2.65625 -4.90625 Z M 2.65625 -4.90625 "/>
</symbol>
<symbol overflow="visible" id="glyph3-7">
<path style="stroke:none;" d="M 1.703125 -13.671875 L 3.3125 -13.671875 L 3.3125 0 L 1.703125 0 Z M 1.703125 -13.671875 "/>
</symbol>
<symbol overflow="visible" id="glyph3-8">
<path style="stroke:none;" d="M 1.703125 -9.84375 L 3.3125 -9.84375 L 3.3125 0 L 1.703125 0 Z M 1.703125 -13.671875 L 3.3125 -13.671875 L 3.3125 -11.625 L 1.703125 -11.625 Z M 1.703125 -13.671875 "/>
</symbol>
<symbol overflow="visible" id="glyph3-9">
<path style="stroke:none;" d="M 9.875 -5.9375 L 9.875 0 L 8.265625 0 L 8.265625 -5.890625 C 8.265625 -6.816406 8.082031 -7.507812 7.71875 -7.96875 C 7.351562 -8.4375 6.804688 -8.671875 6.078125 -8.671875 C 5.203125 -8.671875 4.515625 -8.390625 4.015625 -7.828125 C 3.515625 -7.273438 3.265625 -6.519531 3.265625 -5.5625 L 3.265625 0 L 1.640625 0 L 1.640625 -9.84375 L 3.265625 -9.84375 L 3.265625 -8.3125 C 3.648438 -8.90625 4.101562 -9.347656 4.625 -9.640625 C 5.15625 -9.929688 5.757812 -10.078125 6.4375 -10.078125 C 7.570312 -10.078125 8.425781 -9.726562 9 -9.03125 C 9.582031 -8.332031 9.875 -7.300781 9.875 -5.9375 Z M 9.875 -5.9375 "/>
</symbol>
</g>
</defs>
<g id="surface240">
<path style="fill-rule:nonzero;fill:rgb(100%,100%,100%);fill-opacity:1;stroke-width:1;stroke-linecap:round;stroke-linejoin:round;stroke:rgb(0%,0%,0%);stroke-opacity:1;stroke-miterlimit:10;" d="M 0 0 L 185 0 L 185 225 L 0 225 Z M 0 0 " transform="matrix(1.5,0,0,1.5,0,0)"/>
<g style="fill:rgb(0%,0%,0%);fill-opacity:1;">
  <use xlink:href="#glyph0-1" x="115.394531" y="133.300781"/>
</g>
<g style="fill:rgb(0%,0%,0%);fill-opacity:1;">
  <use xlink:href="#glyph1-1" x="44.394531" y="158.851562"/>
  <use xlink:href="#glyph1-2" x="58.325195" y="158.851562"/>
  <use xlink:href="#glyph1-3" x="64.495117" y="158.851562"/>
  <use xlink:href="#glyph1-4" x="76.228516" y="158.851562"/>
  <use xlink:href="#glyph1-4" x="86.942383" y="158.851562"/>
  <use xlink:href="#glyph1-5" x="97.65625" y="158.851562"/>
  <use xlink:href="#glyph1-6" x="109.802734" y="158.851562"/>
  <use xlink:href="#glyph1-7" x="116.069336" y="158.851562"/>
  <use xlink:href="#glyph1-6" x="131.151367" y="158.851562"/>
  <use xlink:href="#glyph1-8" x="137.417969" y="158.851562"/>
  <use xlink:href="#glyph1-5" x="144.115234" y="158.851562"/>
  <use xlink:href="#glyph1-9" x="156.261719" y="158.851562"/>
  <use xlink:href="#glyph1-10" x="169.076172" y="158.851562"/>
  <use xlink:href="#glyph1-6" x="181.28418" y="158.851562"/>
  <use xlink:href="#glyph1-11" x="187.550781" y="158.851562"/>
  <use xlink:href="#glyph1-3" x="202.615234" y="158.851562"/>
  <use xlink:href="#glyph1-12" x="214.348633" y="158.851562"/>
</g>
<g style="fill:rgb(0%,0%,0%);fill-opacity:1;">
  <use xlink:href="#glyph2-1" x="63.371094" y="180.019531"/>
  <use xlink:href="#glyph2-2" x="72.73877" y="180.019531"/>
  <use xlink:href="#glyph2-3" x="82.86084" y="180.019531"/>
  <use xlink:href="#glyph2-4" x="91.752441" y="180.019531"/>
  <use xlink:href="#glyph2-5" x="102.431152" y="180.019531"/>
  <use xlink:href="#glyph2-6" x="107.572754" y="180.019531"/>
  <use xlink:href="#glyph2-7" x="114.743164" y="180.019531"/>
  <use xlink:href="#glyph2-8" x="124.520996" y="180.019531"/>
  <use xlink:href="#glyph2-9" x="129.743164" y="180.019531"/>
  <use xlink:href="#glyph2-8" x="142.311523" y="180.019531"/>
  <use xlink:href="#glyph2-10" x="147.533691" y="180.019531"/>
  <use xlink:href="#glyph2-11" x="159.984863" y="180.019531"/>
  <use xlink:href="#glyph2-12" x="165.243652" y="180.019531"/>
  <use xlink:href="#glyph2-8" x="170.941895" y="180.019531"/>
  <use xlink:href="#glyph2-13" x="176.164062" y="180.019531"/>
  <use xlink:href="#glyph2-7" x="188.717773" y="180.019531"/>
  <use xlink:href="#glyph2-14" x="198.495605" y="180.019531"/>
</g>
<path style=" stroke:none;fill-rule:evenodd;fill:rgb(74.509804%,74.509804%,74.509804%);fill-opacity:1;" d="M 126.558594 203.054688 C 130.703125 203.054688 134.058594 206.414062 134.058594 210.554688 L 134.058594 231.507812 C 134.058594 235.652344 130.703125 239.007812 126.558594 239.007812 L 36.558594 239.007812 C 32.417969 239.007812 29.058594 235.652344 29.058594 231.507812 L 29.058594 210.554688 C 29.058594 206.414062 32.417969 203.054688 36.558594 203.054688 Z M 126.558594 203.054688 "/>
<path style="fill-rule:evenodd;fill:rgb(100%,100%,100%);fill-opacity:1;stroke-width:1;stroke-linecap:round;stroke-linejoin:round;stroke:rgb(0%,0%,0%);stroke-opacity:1;stroke-miterlimit:10;" d="M 83.372396 133.869792 C 86.135417 133.869792 88.372396 136.109375 88.372396 138.869792 L 88.372396 152.838542 C 88.372396 155.601562 86.135417 157.838542 83.372396 157.838542 L 23.372396 157.838542 C 20.611979 157.838542 18.372396 155.601562 18.372396 152.838542 L 18.372396 138.869792 C 18.372396 136.109375 20.611979 133.869792 23.372396 133.869792 Z M 83.372396 133.869792 " transform="matrix(1.5,0,0,1.5,0,0)"/>
<g style="fill:rgb(0%,0%,0%);fill-opacity:1;">
  <use xlink:href="#glyph3-1" x="49.867188" y="225.015625"/>
  <use xlink:href="#glyph3-2" x="60.897461" y="225.015625"/>
  <use xlink:href="#glyph3-2" x="70.793945" y="225.015625"/>
  <use xlink:href="#glyph3-3" x="80.69043" y="225.015625"/>
  <use xlink:href="#glyph3-4" x="91.764648" y="225.015625"/>
  <use xlink:href="#glyph3-5" x="103.19043" y="225.015625"/>
</g>
<path style=" stroke:none;fill-rule:evenodd;fill:rgb(74.509804%,74.509804%,74.509804%);fill-opacity:1;" d="M 243 203.054688 C 247.140625 203.054688 250.5 206.414062 250.5 210.554688 L 250.5 231.507812 C 250.5 235.652344 247.140625 239.007812 243 239.007812 L 153 239.007812 C 148.859375 239.007812 145.5 235.652344 145.5 231.507812 L 145.5 210.554688 C 145.5 206.414062 148.859375 203.054688 153 203.054688 Z M 243 203.054688 "/>
<path style="fill-rule:evenodd;fill:rgb(100%,100%,100%);fill-opacity:1;stroke-width:1;stroke-linecap:round;stroke-linejoin:round;stroke:rgb(0%,0%,0%);stroke-opacity:1;stroke-miterlimit:10;" d="M 161 133.869792 C 163.760417 133.869792 166 136.109375 166 138.869792 L 166 152.838542 C 166 155.601562 163.760417 157.838542 161 157.838542 L 101 157.838542 C 98.239583 157.838542 96 155.601562 96 152.838542 L 96 138.869792 C 96 136.109375 98.239583 133.869792 101 133.869792 Z M 161 133.869792 " transform="matrix(1.5,0,0,1.5,0,0)"/>
<g style="fill:rgb(0%,0%,0%);fill-opacity:1;">
  <use xlink:href="#glyph3-6" x="164.058594" y="225.015625"/>
  <use xlink:href="#glyph3-3" x="175.484375" y="225.015625"/>
  <use xlink:href="#glyph3-2" x="186.558594" y="225.015625"/>
  <use xlink:href="#glyph3-7" x="196.455078" y="225.015625"/>
  <use xlink:href="#glyph3-8" x="201.456055" y="225.015625"/>
  <use xlink:href="#glyph3-9" x="206.457031" y="225.015625"/>
  <use xlink:href="#glyph3-3" x="217.865234" y="225.015625"/>
</g>
</g>
</svg>
