<?xml version="1.0" encoding="UTF-8"?>
<svg xmlns="http://www.w3.org/2000/svg" xmlns:xlink="http://www.w3.org/1999/xlink" width="277.5" height="337.5" viewBox="0 0 277.5 337.5" version="1.1">
<defs>
<g>
<symbol overflow="visible" id="glyph0-0">
<path style="stroke:none;" d="M 1.875 6.625 L 1.875 -26.4375 L 20.625 -26.4375 L 20.625 6.625 Z M 3.96875 4.546875 L 18.53125 4.546875 L 18.53125 -24.328125 L 3.96875 -24.328125 Z M 3.96875 4.546875 "/>
</symbol>
<symbol overflow="visible" id="glyph0-1">
<path style="stroke:none;" d="M 23.265625 -27.34375 L 23.4375 -27.34375 C 30.800781 -27.132812 36.050781 -26.082031 39.1875 -24.1875 C 42.488281 -22.1875 44.140625 -20.148438 44.140625 -18.078125 C 43.703125 -16.203125 42.859375 -15.265625 41.609375 -15.265625 C 41.523438 -15.265625 41.441406 -15.273438 41.359375 -15.296875 L 33.90625 -17.859375 C 33.175781 -18.078125 32.8125 -18.445312 32.8125 -18.96875 C 32.8125 -19.195312 32.882812 -19.46875 33.03125 -19.78125 C 33.863281 -20.644531 34.28125 -21.269531 34.28125 -21.65625 C 34.28125 -21.9375 34.070312 -22.097656 33.65625 -22.140625 L 13.078125 -22.140625 C 12.660156 -22.097656 12.453125 -21.9375 12.453125 -21.65625 C 12.453125 -21.269531 12.867188 -20.644531 13.703125 -19.78125 C 13.847656 -19.488281 13.921875 -19.21875 13.921875 -18.96875 C 13.921875 -18.445312 13.546875 -18.078125 12.796875 -17.859375 L 5.34375 -15.296875 C 5.257812 -15.273438 5.179688 -15.265625 5.109375 -15.265625 C 3.859375 -15.265625 3.007812 -16.203125 2.5625 -18.078125 C 2.5625 -20.148438 4.222656 -22.1875 7.546875 -24.1875 C 10.671875 -26.050781 15.910156 -27.101562 23.265625 -27.34375 Z M 27.6875 -19.78125 L 27.6875 -21.15625 L 30.328125 -21.15625 L 30.328125 -18.359375 C 30.328125 -17.453125 31.796875 -16.648438 34.734375 -15.953125 C 37.554688 -14.785156 38.96875 -12.457031 38.96875 -8.96875 L 38.96875 0 L 7.75 0 L 7.75 -8.96875 C 7.75 -12.457031 9.164062 -14.785156 12 -15.953125 C 14.925781 -16.648438 16.390625 -17.453125 16.390625 -18.359375 L 16.390625 -21.15625 L 19.046875 -21.15625 L 19.046875 -19.78125 Z M 15.90625 -9.765625 C 15.90625 -7.722656 16.625 -5.988281 18.0625 -4.5625 C 19.507812 -3.132812 21.238281 -2.421875 23.25 -2.421875 C 25.300781 -2.421875 27.039062 -3.132812 28.46875 -4.5625 C 29.894531 -5.988281 30.609375 -7.722656 30.609375 -9.765625 C 30.609375 -11.785156 29.894531 -13.515625 28.46875 -14.953125 C 27.050781 -16.398438 25.3125 -17.125 23.25 -17.125 C 21.21875 -17.125 19.484375 -16.398438 18.046875 -14.953125 C 16.617188 -13.515625 15.90625 -11.785156 15.90625 -9.765625 Z M 27.375 -9.78125 C 27.375 -8.644531 26.972656 -7.671875 26.171875 -6.859375 C 25.367188 -6.054688 24.394531 -5.65625 23.25 -5.65625 C 22.113281 -5.65625 21.144531 -6.054688 20.34375 -6.859375 C 19.550781 -7.671875 19.15625 -8.644531 19.15625 -9.78125 C 19.15625 -10.9375 19.550781 -11.914062 20.34375 -12.71875 C 21.144531 -13.519531 22.113281 -13.921875 23.25 -13.921875 C 24.394531 -13.921875 25.367188 -13.519531 26.171875 -12.71875 C 26.972656 -11.914062 27.375 -10.9375 27.375 -9.78125 Z M 24.46875 -15.578125 C 24.46875 -15.304688 24.367188 -15.066406 24.171875 -14.859375 C 23.972656 -14.660156 23.726562 -14.5625 23.4375 -14.5625 C 23.15625 -14.5625 22.910156 -14.660156 22.703125 -14.859375 C 22.503906 -15.066406 22.40625 -15.304688 22.40625 -15.578125 C 22.40625 -15.867188 22.503906 -16.117188 22.703125 -16.328125 C 22.910156 -16.535156 23.15625 -16.640625 23.4375 -16.640625 C 23.726562 -16.640625 23.972656 -16.535156 24.171875 -16.328125 C 24.367188 -16.117188 24.46875 -15.867188 24.46875 -15.578125 Z M 24.46875 -4.0625 C 24.46875 -3.769531 24.367188 -3.519531 24.171875 -3.3125 C 23.972656 -3.113281 23.726562 -3.015625 23.4375 -3.015625 C 23.15625 -3.015625 22.910156 -3.113281 22.703125 -3.3125 C 22.503906 -3.519531 22.40625 -3.769531 22.40625 -4.0625 C 22.40625 -4.34375 22.503906 -4.585938 22.703125 -4.796875 C 22.910156 -5.003906 23.15625 -5.109375 23.4375 -5.109375 C 23.726562 -5.109375 23.972656 -5.003906 24.171875 -4.796875 C 24.367188 -4.585938 24.46875 -4.34375 24.46875 -4.0625 Z M 20.375 -15.484375 C 20.550781 -15.460938 20.71875 -15.335938 20.875 -15.109375 C 21.03125 -14.878906 21.085938 -14.625 21.046875 -14.34375 C 21.015625 -14.0625 20.882812 -13.835938 20.65625 -13.671875 C 20.425781 -13.492188 20.171875 -13.425781 19.890625 -13.46875 C 19.609375 -13.507812 19.378906 -13.644531 19.203125 -13.875 C 19.035156 -14.125 18.972656 -14.382812 19.015625 -14.65625 C 19.066406 -14.925781 19.210938 -15.15625 19.453125 -15.34375 C 19.628906 -15.46875 19.820312 -15.53125 20.03125 -15.53125 C 20.09375 -15.53125 20.207031 -15.515625 20.375 -15.484375 Z M 27.65625 -5.78125 C 27.832031 -5.550781 27.898438 -5.296875 27.859375 -5.015625 C 27.816406 -4.734375 27.671875 -4.503906 27.421875 -4.328125 C 27.242188 -4.203125 27.050781 -4.140625 26.84375 -4.140625 C 26.78125 -4.140625 26.664062 -4.148438 26.5 -4.171875 C 26.332031 -4.203125 26.160156 -4.335938 25.984375 -4.578125 C 25.828125 -4.804688 25.769531 -5.054688 25.8125 -5.328125 C 25.851562 -5.609375 25.988281 -5.832031 26.21875 -6 C 26.445312 -6.164062 26.703125 -6.226562 26.984375 -6.1875 C 27.265625 -6.15625 27.488281 -6.019531 27.65625 -5.78125 Z M 18.25 -12.59375 C 18.539062 -12.5 18.75 -12.328125 18.875 -12.078125 C 19 -11.828125 19.019531 -11.566406 18.9375 -11.296875 C 18.851562 -11.023438 18.679688 -10.828125 18.421875 -10.703125 C 18.160156 -10.578125 17.898438 -10.550781 17.640625 -10.625 C 17.367188 -10.707031 17.175781 -10.851562 17.0625 -11.0625 C 16.957031 -11.269531 16.90625 -11.453125 16.90625 -11.609375 C 16.90625 -11.722656 16.921875 -11.832031 16.953125 -11.9375 C 17.054688 -12.207031 17.234375 -12.40625 17.484375 -12.53125 C 17.734375 -12.65625 17.988281 -12.675781 18.25 -12.59375 Z M 28.46875 -8.96875 C 28.71875 -9.09375 28.972656 -9.113281 29.234375 -9.03125 C 29.503906 -8.945312 29.691406 -8.800781 29.796875 -8.59375 C 29.898438 -8.382812 29.953125 -8.195312 29.953125 -8.03125 C 29.953125 -7.9375 29.9375 -7.835938 29.90625 -7.734375 C 29.800781 -7.460938 29.625 -7.257812 29.375 -7.125 C 29.125 -7 28.863281 -6.988281 28.59375 -7.09375 C 28.332031 -7.175781 28.132812 -7.34375 28 -7.59375 C 27.875 -7.84375 27.851562 -8.109375 27.9375 -8.390625 C 28.039062 -8.660156 28.21875 -8.851562 28.46875 -8.96875 Z M 17.0625 -8.59375 C 17.175781 -8.800781 17.363281 -8.945312 17.625 -9.03125 C 17.894531 -9.113281 18.160156 -9.09375 18.421875 -8.96875 C 18.679688 -8.851562 18.851562 -8.660156 18.9375 -8.390625 C 19.019531 -8.097656 19 -7.828125 18.875 -7.578125 C 18.75 -7.328125 18.554688 -7.148438 18.296875 -7.046875 C 18.003906 -6.972656 17.734375 -7 17.484375 -7.125 C 17.234375 -7.257812 17.054688 -7.460938 16.953125 -7.734375 C 16.921875 -7.835938 16.90625 -7.9375 16.90625 -8.03125 C 16.90625 -8.195312 16.957031 -8.382812 17.0625 -8.59375 Z M 28.59375 -12.59375 C 28.863281 -12.675781 29.125 -12.65625 29.375 -12.53125 C 29.625 -12.40625 29.800781 -12.207031 29.90625 -11.9375 C 29.9375 -11.832031 29.953125 -11.726562 29.953125 -11.625 C 29.953125 -11.46875 29.898438 -11.285156 29.796875 -11.078125 C 29.691406 -10.878906 29.503906 -10.734375 29.234375 -10.640625 C 28.972656 -10.554688 28.707031 -10.578125 28.4375 -10.703125 C 28.175781 -10.828125 28.007812 -11.023438 27.9375 -11.296875 C 27.851562 -11.566406 27.875 -11.828125 28 -12.078125 C 28.132812 -12.328125 28.332031 -12.5 28.59375 -12.59375 Z M 19.203125 -5.78125 C 19.378906 -6 19.609375 -6.128906 19.890625 -6.171875 C 20.171875 -6.222656 20.425781 -6.164062 20.65625 -6 C 20.882812 -5.832031 21.023438 -5.601562 21.078125 -5.3125 C 21.128906 -5.03125 21.0625 -4.785156 20.875 -4.578125 C 20.71875 -4.335938 20.550781 -4.203125 20.375 -4.171875 C 20.207031 -4.148438 20.09375 -4.140625 20.03125 -4.140625 C 19.820312 -4.140625 19.628906 -4.203125 19.453125 -4.328125 C 19.210938 -4.503906 19.078125 -4.675781 19.046875 -4.84375 C 19.015625 -5.019531 19 -5.140625 19 -5.203125 C 19 -5.410156 19.066406 -5.601562 19.203125 -5.78125 Z M 25.984375 -15.109375 C 26.160156 -15.335938 26.332031 -15.460938 26.5 -15.484375 C 26.664062 -15.515625 26.78125 -15.53125 26.84375 -15.53125 C 27.050781 -15.53125 27.242188 -15.46875 27.421875 -15.34375 C 27.671875 -15.15625 27.804688 -14.976562 27.828125 -14.8125 C 27.859375 -14.65625 27.875 -14.550781 27.875 -14.5 C 27.875 -14.28125 27.800781 -14.070312 27.65625 -13.875 C 27.488281 -13.644531 27.320312 -13.515625 27.15625 -13.484375 C 27 -13.460938 26.890625 -13.453125 26.828125 -13.453125 C 26.609375 -13.453125 26.40625 -13.523438 26.21875 -13.671875 C 25.988281 -13.835938 25.859375 -14.003906 25.828125 -14.171875 C 25.804688 -14.335938 25.796875 -14.453125 25.796875 -14.515625 C 25.796875 -14.722656 25.859375 -14.921875 25.984375 -15.109375 Z M 25.984375 -15.109375 "/>
</symbol>
<symbol overflow="visible" id="glyph1-0">
<path style="stroke:none;" d="M 1.046875 3.71875 L 1.046875 -14.8125 L 11.546875 -14.8125 L 11.546875 3.71875 Z M 2.21875 2.546875 L 10.375 2.546875 L 10.375 -13.625 L 2.21875 -13.625 Z M 2.21875 2.546875 "/>
</symbol>
<symbol overflow="visible" id="glyph1-1">
<path style="stroke:none;" d="M 1.921875 -15.3125 L 6.953125 -15.3125 L 10.4375 -7.109375 L 13.953125 -15.3125 L 18.953125 -15.3125 L 18.953125 0 L 15.234375 0 L 15.234375 -11.203125 L 11.703125 -2.9375 L 9.203125 -2.9375 L 5.671875 -11.203125 L 5.671875 0 L 1.921875 0 Z M 1.921875 -15.3125 "/>
</symbol>
<symbol overflow="visible" id="glyph1-2">
<path style="stroke:none;" d="M 7.234375 -9.140625 C 6.421875 -9.140625 5.800781 -8.847656 5.375 -8.265625 C 4.945312 -7.679688 4.734375 -6.835938 4.734375 -5.734375 C 4.734375 -4.628906 4.945312 -3.785156 5.375 -3.203125 C 5.800781 -2.617188 6.421875 -2.328125 7.234375 -2.328125 C 8.023438 -2.328125 8.632812 -2.617188 9.0625 -3.203125 C 9.488281 -3.785156 9.703125 -4.628906 9.703125 -5.734375 C 9.703125 -6.835938 9.488281 -7.679688 9.0625 -8.265625 C 8.632812 -8.847656 8.023438 -9.140625 7.234375 -9.140625 Z M 7.234375 -11.765625 C 9.203125 -11.765625 10.742188 -11.226562 11.859375 -10.15625 C 12.972656 -9.09375 13.53125 -7.617188 13.53125 -5.734375 C 13.53125 -3.847656 12.972656 -2.367188 11.859375 -1.296875 C 10.742188 -0.234375 9.203125 0.296875 7.234375 0.296875 C 5.242188 0.296875 3.691406 -0.234375 2.578125 -1.296875 C 1.460938 -2.367188 0.90625 -3.847656 0.90625 -5.734375 C 0.90625 -7.617188 1.460938 -9.09375 2.578125 -10.15625 C 3.691406 -11.226562 5.242188 -11.765625 7.234375 -11.765625 Z M 7.234375 -11.765625 "/>
</symbol>
<symbol overflow="visible" id="glyph1-3">
<path style="stroke:none;" d="M 12.40625 -9.578125 C 12.875 -10.285156 13.425781 -10.828125 14.0625 -11.203125 C 14.695312 -11.578125 15.398438 -11.765625 16.171875 -11.765625 C 17.492188 -11.765625 18.5 -11.359375 19.1875 -10.546875 C 19.875 -9.734375 20.21875 -8.550781 20.21875 -7 L 20.21875 0 L 16.53125 0 L 16.53125 -5.984375 C 16.539062 -6.078125 16.546875 -6.171875 16.546875 -6.265625 C 16.546875 -6.359375 16.546875 -6.492188 16.546875 -6.671875 C 16.546875 -7.484375 16.425781 -8.070312 16.1875 -8.4375 C 15.945312 -8.8125 15.5625 -9 15.03125 -9 C 14.332031 -9 13.789062 -8.707031 13.40625 -8.125 C 13.03125 -7.550781 12.835938 -6.722656 12.828125 -5.640625 L 12.828125 0 L 9.140625 0 L 9.140625 -5.984375 C 9.140625 -7.253906 9.03125 -8.070312 8.8125 -8.4375 C 8.59375 -8.8125 8.203125 -9 7.640625 -9 C 6.929688 -9 6.382812 -8.707031 6 -8.125 C 5.625 -7.550781 5.4375 -6.726562 5.4375 -5.65625 L 5.4375 0 L 1.75 0 L 1.75 -11.484375 L 5.4375 -11.484375 L 5.4375 -9.796875 C 5.882812 -10.453125 6.398438 -10.941406 6.984375 -11.265625 C 7.566406 -11.597656 8.210938 -11.765625 8.921875 -11.765625 C 9.710938 -11.765625 10.410156 -11.570312 11.015625 -11.1875 C 11.628906 -10.800781 12.09375 -10.265625 12.40625 -9.578125 Z M 12.40625 -9.578125 "/>
</symbol>
<symbol overflow="visible" id="glyph2-0">
<path style="stroke:none;" d="M 0.890625 3.1875 L 0.890625 -12.6875 L 9.890625 -12.6875 L 9.890625 3.1875 Z M 1.90625 2.1875 L 8.890625 2.1875 L 8.890625 -11.6875 L 1.90625 -11.6875 Z M 1.90625 2.1875 "/>
</symbol>
<symbol overflow="visible" id="glyph2-1">
<path style="stroke:none;" d="M 6.171875 -4.953125 C 4.859375 -4.953125 3.953125 -4.800781 3.453125 -4.5 C 2.953125 -4.195312 2.703125 -3.6875 2.703125 -2.96875 C 2.703125 -2.394531 2.890625 -1.9375 3.265625 -1.59375 C 3.640625 -1.257812 4.15625 -1.09375 4.8125 -1.09375 C 5.707031 -1.09375 6.425781 -1.410156 6.96875 -2.046875 C 7.507812 -2.679688 7.78125 -3.53125 7.78125 -4.59375 L 7.78125 -4.953125 Z M 9.390625 -5.609375 L 9.390625 0 L 7.78125 0 L 7.78125 -1.5 C 7.40625 -0.894531 6.941406 -0.453125 6.390625 -0.171875 C 5.847656 0.109375 5.175781 0.25 4.375 0.25 C 3.363281 0.25 2.5625 -0.03125 1.96875 -0.59375 C 1.375 -1.15625 1.078125 -1.910156 1.078125 -2.859375 C 1.078125 -3.972656 1.445312 -4.8125 2.1875 -5.375 C 2.9375 -5.9375 4.046875 -6.21875 5.515625 -6.21875 L 7.78125 -6.21875 L 7.78125 -6.375 C 7.78125 -7.113281 7.535156 -7.6875 7.046875 -8.09375 C 6.554688 -8.5 5.867188 -8.703125 4.984375 -8.703125 C 4.421875 -8.703125 3.875 -8.632812 3.34375 -8.5 C 2.8125 -8.375 2.296875 -8.175781 1.796875 -7.90625 L 1.796875 -9.390625 C 2.390625 -9.617188 2.960938 -9.789062 3.515625 -9.90625 C 4.078125 -10.019531 4.625 -10.078125 5.15625 -10.078125 C 6.570312 -10.078125 7.628906 -9.707031 8.328125 -8.96875 C 9.035156 -8.226562 9.390625 -7.109375 9.390625 -5.609375 Z M 9.390625 -5.609375 "/>
</symbol>
<symbol overflow="visible" id="glyph2-2">
<path style="stroke:none;" d="M 8.78125 -9.46875 L 8.78125 -7.953125 C 8.320312 -8.203125 7.863281 -8.390625 7.40625 -8.515625 C 6.945312 -8.640625 6.484375 -8.703125 6.015625 -8.703125 C 4.960938 -8.703125 4.144531 -8.367188 3.5625 -7.703125 C 2.988281 -7.046875 2.703125 -6.113281 2.703125 -4.90625 C 2.703125 -3.707031 2.988281 -2.773438 3.5625 -2.109375 C 4.144531 -1.441406 4.960938 -1.109375 6.015625 -1.109375 C 6.484375 -1.109375 6.945312 -1.171875 7.40625 -1.296875 C 7.863281 -1.429688 8.320312 -1.625 8.78125 -1.875 L 8.78125 -0.375 C 8.332031 -0.164062 7.863281 -0.0078125 7.375 0.09375 C 6.894531 0.195312 6.382812 0.25 5.84375 0.25 C 4.351562 0.25 3.171875 -0.210938 2.296875 -1.140625 C 1.429688 -2.078125 1 -3.332031 1 -4.90625 C 1 -6.519531 1.4375 -7.785156 2.3125 -8.703125 C 3.195312 -9.617188 4.40625 -10.078125 5.9375 -10.078125 C 6.4375 -10.078125 6.921875 -10.023438 7.390625 -9.921875 C 7.867188 -9.828125 8.332031 -9.675781 8.78125 -9.46875 Z M 8.78125 -9.46875 "/>
</symbol>
<symbol overflow="visible" id="glyph2-3">
<path style="stroke:none;" d="M 10.109375 -5.328125 L 10.109375 -4.53125 L 2.6875 -4.53125 C 2.75 -3.414062 3.082031 -2.566406 3.6875 -1.984375 C 4.289062 -1.398438 5.128906 -1.109375 6.203125 -1.109375 C 6.816406 -1.109375 7.414062 -1.1875 8 -1.34375 C 8.582031 -1.5 9.160156 -1.726562 9.734375 -2.03125 L 9.734375 -0.5 C 9.160156 -0.25 8.566406 -0.0625 7.953125 0.0625 C 7.347656 0.1875 6.726562 0.25 6.09375 0.25 C 4.53125 0.25 3.289062 -0.203125 2.375 -1.109375 C 1.457031 -2.023438 1 -3.265625 1 -4.828125 C 1 -6.441406 1.429688 -7.71875 2.296875 -8.65625 C 3.171875 -9.601562 4.34375 -10.078125 5.8125 -10.078125 C 7.144531 -10.078125 8.191406 -9.648438 8.953125 -8.796875 C 9.722656 -7.953125 10.109375 -6.796875 10.109375 -5.328125 Z M 8.5 -5.796875 C 8.488281 -6.679688 8.238281 -7.382812 7.75 -7.90625 C 7.269531 -8.4375 6.632812 -8.703125 5.84375 -8.703125 C 4.9375 -8.703125 4.210938 -8.445312 3.671875 -7.9375 C 3.128906 -7.4375 2.816406 -6.722656 2.734375 -5.796875 Z M 8.5 -5.796875 "/>
</symbol>
<symbol overflow="visible" id="glyph2-4">
<path style="stroke:none;" d="M 3.265625 -1.484375 L 3.265625 3.75 L 1.640625 3.75 L 1.640625 -9.84375 L 3.265625 -9.84375 L 3.265625 -8.34375 C 3.597656 -8.9375 4.023438 -9.375 4.546875 -9.65625 C 5.066406 -9.9375 5.6875 -10.078125 6.40625 -10.078125 C 7.601562 -10.078125 8.570312 -9.601562 9.3125 -8.65625 C 10.0625 -7.707031 10.4375 -6.457031 10.4375 -4.90625 C 10.4375 -3.363281 10.0625 -2.117188 9.3125 -1.171875 C 8.570312 -0.222656 7.601562 0.25 6.40625 0.25 C 5.6875 0.25 5.066406 0.109375 4.546875 -0.171875 C 4.023438 -0.453125 3.597656 -0.890625 3.265625 -1.484375 Z M 8.765625 -4.90625 C 8.765625 -6.101562 8.519531 -7.039062 8.03125 -7.71875 C 7.539062 -8.394531 6.867188 -8.734375 6.015625 -8.734375 C 5.160156 -8.734375 4.488281 -8.394531 4 -7.71875 C 3.507812 -7.039062 3.265625 -6.101562 3.265625 -4.90625 C 3.265625 -3.71875 3.507812 -2.785156 4 -2.109375 C 4.488281 -1.429688 5.160156 -1.09375 6.015625 -1.09375 C 6.867188 -1.09375 7.539062 -1.429688 8.03125 -2.109375 C 8.519531 -2.785156 8.765625 -3.71875 8.765625 -4.90625 Z M 8.765625 -4.90625 "/>
</symbol>
<symbol overflow="visible" id="glyph2-5">
<path style="stroke:none;" d="M 3.296875 -12.640625 L 3.296875 -9.84375 L 6.625 -9.84375 L 6.625 -8.59375 L 3.296875 -8.59375 L 3.296875 -3.25 C 3.296875 -2.445312 3.40625 -1.929688 3.625 -1.703125 C 3.84375 -1.472656 4.289062 -1.359375 4.96875 -1.359375 L 6.625 -1.359375 L 6.625 0 L 4.96875 0 C 3.71875 0 2.851562 -0.226562 2.375 -0.6875 C 1.90625 -1.15625 1.671875 -2.007812 1.671875 -3.25 L 1.671875 -8.59375 L 0.484375 -8.59375 L 0.484375 -9.84375 L 1.671875 -9.84375 L 1.671875 -12.640625 Z M 3.296875 -12.640625 "/>
</symbol>
<symbol overflow="visible" id="glyph2-6">
<path style="stroke:none;" d="M 8.171875 -8.34375 L 8.171875 -13.671875 L 9.796875 -13.671875 L 9.796875 0 L 8.171875 0 L 8.171875 -1.484375 C 7.835938 -0.890625 7.410156 -0.453125 6.890625 -0.171875 C 6.367188 0.109375 5.742188 0.25 5.015625 0.25 C 3.828125 0.25 2.859375 -0.222656 2.109375 -1.171875 C 1.367188 -2.117188 1 -3.363281 1 -4.90625 C 1 -6.457031 1.367188 -7.707031 2.109375 -8.65625 C 2.859375 -9.601562 3.828125 -10.078125 5.015625 -10.078125 C 5.742188 -10.078125 6.367188 -9.9375 6.890625 -9.65625 C 7.410156 -9.375 7.835938 -8.9375 8.171875 -8.34375 Z M 2.65625 -4.90625 C 2.65625 -3.71875 2.898438 -2.785156 3.390625 -2.109375 C 3.878906 -1.429688 4.554688 -1.09375 5.421875 -1.09375 C 6.273438 -1.09375 6.945312 -1.429688 7.4375 -2.109375 C 7.925781 -2.785156 8.171875 -3.71875 8.171875 -4.90625 C 8.171875 -6.101562 7.925781 -7.039062 7.4375 -7.71875 C 6.945312 -8.394531 6.273438 -8.734375 5.421875 -8.734375 C 4.554688 -8.734375 3.878906 -8.394531 3.390625 -7.71875 C 2.898438 -7.039062 2.65625 -6.101562 2.65625 -4.90625 Z M 2.65625 -4.90625 "/>
</symbol>
<symbol overflow="visible" id="glyph2-7">
<path style="stroke:none;" d="M 1.703125 -13.671875 L 3.3125 -13.671875 L 3.3125 0 L 1.703125 0 Z M 1.703125 -13.671875 "/>
</symbol>
<symbol overflow="visible" id="glyph2-8">
<path style="stroke:none;" d="M 1.703125 -9.84375 L 3.3125 -9.84375 L 3.3125 0 L 1.703125 0 Z M 1.703125 -13.671875 L 3.3125 -13.671875 L 3.3125 -11.625 L 1.703125 -11.625 Z M 1.703125 -13.671875 "/>
</symbol>
<symbol overflow="visible" id="glyph2-9">
<path style="stroke:none;" d="M 9.875 -5.9375 L 9.875 0 L 8.265625 0 L 8.265625 -5.890625 C 8.265625 -6.816406 8.082031 -7.507812 7.71875 -7.96875 C 7.351562 -8.4375 6.804688 -8.671875 6.078125 -8.671875 C 5.203125 -8.671875 4.515625 -8.390625 4.015625 -7.828125 C 3.515625 -7.273438 3.265625 -6.519531 3.265625 -5.5625 L 3.265625 0 L 1.640625 0 L 1.640625 -9.84375 L 3.265625 -9.84375 L 3.265625 -8.3125 C 3.648438 -8.90625 4.101562 -9.347656 4.625 -9.640625 C 5.15625 -9.929688 5.757812 -10.078125 6.4375 -10.078125 C 7.570312 -10.078125 8.425781 -9.726562 9 -9.03125 C 9.582031 -8.332031 9.875 -7.300781 9.875 -5.9375 Z M 9.875 -5.9375 "/>
</symbol>
</g>
</defs>
<g id="surface213">
<path style="fill-rule:nonzero;fill:rgb(100%,100%,100%);fill-opacity:1;stroke-width:1;stroke-linecap:round;stroke-linejoin:round;stroke:rgb(0%,0%,0%);stroke-opacity:1;stroke-miterlimit:10;" d="M 0 0 L 185 0 L 185 225 L 0 225 Z M 0 0 " transform="matrix(1.5,0,0,1.5,0,0)"/>
<g style="fill:rgb(0%,0%,0%);fill-opacity:1;">
  <use xlink:href="#glyph0-1" x="115.394531" y="141.785156"/>
</g>
<g style="fill:rgb(0%,0%,0%);fill-opacity:1;">
  <use xlink:href="#glyph1-1" x="110.148437" y="170.121094"/>
  <use xlink:href="#glyph1-2" x="131.045898" y="170.121094"/>
  <use xlink:href="#glyph1-3" x="145.473145" y="170.121094"/>
</g>
<path style=" stroke:none;fill-rule:evenodd;fill:rgb(74.509804%,74.509804%,74.509804%);fill-opacity:1;" d="M 126.558594 194.570312 C 130.703125 194.570312 134.058594 197.929688 134.058594 202.070312 L 134.058594 223.023438 C 134.058594 227.167969 130.703125 230.523438 126.558594 230.523438 L 36.558594 230.523438 C 32.417969 230.523438 29.058594 227.167969 29.058594 223.023438 L 29.058594 202.070312 C 29.058594 197.929688 32.417969 194.570312 36.558594 194.570312 Z M 126.558594 194.570312 "/>
<path style="fill-rule:evenodd;fill:rgb(100%,100%,100%);fill-opacity:1;stroke-width:1;stroke-linecap:round;stroke-linejoin:round;stroke:rgb(0%,0%,0%);stroke-opacity:1;stroke-miterlimit:10;" d="M 83.372396 128.213542 C 86.135417 128.213542 88.372396 130.453125 88.372396 133.213542 L 88.372396 147.182292 C 88.372396 149.945312 86.135417 152.182292 83.372396 152.182292 L 23.372396 152.182292 C 20.611979 152.182292 18.372396 149.945312 18.372396 147.182292 L 18.372396 133.213542 C 18.372396 130.453125 20.611979 128.213542 23.372396 128.213542 Z M 83.372396 128.213542 " transform="matrix(1.5,0,0,1.5,0,0)"/>
<g style="fill:rgb(0%,0%,0%);fill-opacity:1;">
  <use xlink:href="#glyph2-1" x="49.867188" y="216.53125"/>
  <use xlink:href="#glyph2-2" x="60.897461" y="216.53125"/>
  <use xlink:href="#glyph2-2" x="70.793945" y="216.53125"/>
  <use xlink:href="#glyph2-3" x="80.69043" y="216.53125"/>
  <use xlink:href="#glyph2-4" x="91.764648" y="216.53125"/>
  <use xlink:href="#glyph2-5" x="103.19043" y="216.53125"/>
</g>
<path style=" stroke:none;fill-rule:evenodd;fill:rgb(74.509804%,74.509804%,74.509804%);fill-opacity:1;" d="M 243 194.570312 C 247.140625 194.570312 250.5 197.929688 250.5 202.070312 L 250.5 223.023438 C 250.5 227.167969 247.140625 230.523438 243 230.523438 L 153 230.523438 C 148.859375 230.523438 145.5 227.167969 145.5 223.023438 L 145.5 202.070312 C 145.5 197.929688 148.859375 194.570312 153 194.570312 Z M 243 194.570312 "/>
<path style="fill-rule:evenodd;fill:rgb(100%,100%,100%);fill-opacity:1;stroke-width:1;stroke-linecap:round;stroke-linejoin:round;stroke:rgb(0%,0%,0%);stroke-opacity:1;stroke-miterlimit:10;" d="M 161 128.213542 C 163.760417 128.213542 166 130.453125 166 133.213542 L 166 147.182292 C 166 149.945312 163.760417 152.182292 161 152.182292 L 101 152.182292 C 98.239583 152.182292 96 149.945312 96 147.182292 L 96 133.213542 C 96 130.453125 98.239583 128.213542 101 128.213542 Z M 161 128.213542 " transform="matrix(1.5,0,0,1.5,0,0)"/>
<g style="fill:rgb(0%,0%,0%);fill-opacity:1;">
  <use xlink:href="#glyph2-6" x="164.058594" y="216.53125"/>
  <use xlink:href="#glyph2-3" x="175.484375" y="216.53125"/>
  <use xlink:href="#glyph2-2" x="186.558594" y="216.53125"/>
  <use xlink:href="#glyph2-7" x="196.455078" y="216.53125"/>
  <use xlink:href="#glyph2-8" x="201.456055" y="216.53125"/>
  <use xlink:href="#glyph2-9" x="206.457031" y="216.53125"/>
  <use xlink:href="#glyph2-3" x="217.865234" y="216.53125"/>
</g>
</g>
</svg>
